Name,Age,Sex,Equipment,Event,Division,BodyweightKg,WeightClassKg,Squat1Kg,Squat2Kg,Squat3Kg,Squat4Kg,Best3SquatKg,Bench1Kg,Bench2Kg,Bench3Kg,Bench4Kg,Best3BenchKg,Deadlift1Kg,Deadlift2Kg,Deadlift3Kg,Deadlift4Kg,Best3DeadliftKg,TotalKg,Place,Country
Simona Hurdálkova,15,F,Wraps,SBD,T1,49.9,52,70,80,90,,90,45,47.5,-50,,47.5,80,90,100,-106.5,100,237.5,1,Czechia
Ema Mišovčíková,15,F,Wraps,SBD,T1,56,56,-115,115,125,,125,60,65,-70,,65,120,130,140,-145,140,330,1,Slovakia
Ingrid Martin,22,F,Wraps,SBD,J,55.2,56,35,40,45,,45,25,-27.5,-27.5,,25,50,55,60,,60,130,1,Hungary
Edit Kollár,37,F,Wraps,SBD,O,52.5,56,-100,100,105,,105,45,50,-52.5,,50,130,135,,,135,290,1,Hungary
Lorraine Balbiani,24,F,Wraps,SBD,O,55.4,56,90,95,-100,,95,62.5,67.5,-70,,67.5,-110,-110,110,,110,272.5,2,
Julie Menchi,21,F,Wraps,SBD,J,56.4,60,85,95,-102.5,,95,55,57.5,-60,,57.5,-120,120,-130,,120,272.5,1,
Nela Zelenáková,20,F,Wraps,SBD,J,57.8,60,80,-85,-85,,80,40,42.5,-45,,42.5,90,100,110,,110,232.5,2,Czechia
Klaudia Csatlós,28,F,Wraps,SBD,O,57.7,60,112.5,120,125,,125,72.5,77.5,80,,80,135,147.5,155,,155,360,1,Hungary
Dzsenifer Embais,31,F,Wraps,SBD,O,59.9,60,120,127.5,135,,135,47.5,52.5,-55,,52.5,117.5,127.5,-132.5,,127.5,315,3,Hungary
Sylwia Stepien,31,F,Wraps,SBD,O,57.7,60,117.5,-125,125,,125,57.5,-60,-60,,57.5,125,132.5,-135,,132.5,315,2,UK
Julie Davis #1,43,F,Wraps,SBD,M1,59.6,60,-135,135,-145,,135,80,-85,-85,,80,150,160,-170,,160,375,1,UK
Lesley Jayne Thomas,53,F,Wraps,SBD,M3,59.8,60,135.5,142.5,150,,150,72.5,77.5,80,,80,145,152.5,161,-170,161,391,1,UK
Blanka Vass,16,F,Wraps,SBD,T2,60.9,67.5,105,115,-120,,115,45,47.5,50,,50,110,115,120,,120,285,1,Hungary
Vivien Halász,17,F,Wraps,SBD,T2,66,67.5,95,100,-105,,100,55,60,65,,65,95,100,105,,105,270,2,Hungary
Kelly Brown #1,29,F,Wraps,SBD,O,67.2,67.5,-185,185,-200,,185,85,95,97.5,,97.5,185,-195.5,-195.5,,185,467.5,1,UK
Alexandra Soós,21,F,Wraps,SBD,J,72.7,75,190,202.5,210,,210,100,-107.5,,,100,210,222.5,230,,230,540,1,Hungary
Radostina Lulova,26,F,Wraps,SBD,O,68.1,75,175,185,192.5,,192.5,82.5,87.5,90,,90,180,185,-190,,185,467.5,1,Bulgaria
Alexandra Alexa,29,F,Wraps,SBD,O,74.6,75,-165,172.5,177.5,,177.5,100,-110,-110,,100,170,180,-190,,180,457.5,2,UK
Lucie Mádlová,26,F,Wraps,SBD,O,68.7,75,170,180,-190,,180,80,85,87.5,,87.5,140,152.5,160,,160,427.5,3,Czechia
Bernadett Fekete,25,F,Wraps,SBD,O,67.6,75,145,152.5,157.5,,157.5,55,-60,60,,60,150,160,165,,165,382.5,4,Hungary
Marianne Hartio,26,F,Wraps,SBD,O,67.8,75,135,-145,-150,,135,90,-97.5,-97.5,,90,140,150,-165,,150,375,5,Finland
Cécile Caux,26,F,Wraps,SBD,O,72.5,75,102.5,-112.5,-112.5,,102.5,45,-47.5,-47.5,,45,125,135,140,,140,287.5,6,
Katarína Földesová,31,F,Wraps,SBD,O,72.3,75,90,-95,100,,100,40,-50,-50,,40,127.5,130,135,,135,275,7,Slovakia
Viktória Gombás,31,F,Wraps,SBD,O,74.6,75,-100,-112.5,112.5,,112.5,40,47.5,-50,,47.5,-100,100,112.5,,112.5,272.5,8,Hungary
Elena Šimová,40,F,Wraps,SBD,M1,73.1,75,190,200,-207.5,,200,90,97.5,100,,100,180,190,195,200.5,195,495,1,Slovakia
Mónika Bazsó,45,F,Wraps,SBD,M2,73.7,75,-160,165,172.5,,172.5,97.5,105,-107.5,,105,175,185,193,,193,470.5,1,Hungary
Tifani Wittman,19,F,Wraps,SBD,T3,75.8,82.5,160,-170,170,,170,100,112.5,122.5,-125,122.5,190,210,230,,230,522.5,1,Slovakia
Tetiana Brodetska,23,F,Wraps,SBD,J,75.8,82.5,-200,205,215,,215,95,-100,-100,,95,170,-180,-180,,170,480,1,Ukraine
Cindy Dettwiller,23,F,Wraps,SBD,J,81.1,82.5,-110,110,-115,,110,75,-77.5,-77.5,,75,130,140,-150,,140,325,2,
Angéline Berva,24,F,Wraps,SBD,O,79,82.5,140,150,155,,155,80,-82.5,-82.5,,80,160,170,-175,,170,405,1,
Ildikó György,49,F,Wraps,SBD,M2,79.4,82.5,120,-130,-130,,120,85,90,95,,95,140,150,160,,160,375,1,Hungary
Zita Evelley,48,F,Wraps,SBD,M2,76.2,82.5,80,90,95,,95,50,-55,-55,,50,115,125,-130,,125,270,2,Hungary
Paula Jackson,41,F,Wraps,SBD,M1,87.2,90,130,140,-150,,140,75,-80,80,,80,170,185,195,,195,415,1,UK
Anna Szlávik,45,F,Wraps,SBD,M2,84,90,90,100,105,,105,70,75,77.5,,77.5,120,130,-137.5,,130,312.5,1,Hungary
Huw Curram,15,M,Wraps,SBD,T1,59.2,60,140,150.5,155,,155,90,-100,-100,,90,160,170.5,180,,180,425,1,UK
Ottó Antal,59,M,Wraps,SBD,M4,59.7,60,120,127.5,-132.5,,127.5,60,65,-67.5,,65,150,160,-165,,160,352.5,1,Hungary
Levente Karsai,13,M,Wraps,SBD,T1,66.4,67.5,80,90,105,,105,45,50,-55,,50,100,110,-120,,110,265,1,Hungary
Erik Szabó,17,M,Wraps,SBD,T2,61.9,67.5,120,135,-147.5,,135,70,80,85,,85,130,140,155,,155,375,1,Slovakia
Máté Kiss #1,19,M,Wraps,SBD,T3,64.2,67.5,173,-190,190,-200,190,90,100,-105,,100,190,-210.5,-210.5,,190,480,1,Hungary
Florián Tichý,32,M,Wraps,SBD,O,66.7,67.5,170,180,-185,,180,135,140,145,,145,210,220,-230,,220,545,1,Slovakia
Vladimir Jović,35,M,Wraps,SBD,O,65.7,67.5,152.5,-157.5,157.5,,157.5,122.5,125,-127.5,,125,170,175,177.5,,177.5,460,2,Serbia
Zoltán Heidinger,41,M,Wraps,SBD,M1,63.7,67.5,-90,90,115,,115,90,97.5,-100,,97.5,120,140,-150,,140,352.5,1,Hungary
John Russell,72,M,Wraps,SBD,M7,66.7,67.5,115,125,130,,130,90,97.5,,,97.5,145,165,172.5,,172.5,400,1,UK
Nikola Banković,17,M,Wraps,SBD,T2,73.3,75,150,160,-170,,160,95,105,-110,,105,190,200,210,,210,475,1,Serbia
Krisztián Deme,16,M,Wraps,SBD,T2,70.9,75,125,135,145,,145,110,120,-125,,120,125,140,-155,,140,405,2,Slovakia
Dávid Horák,16,M,Wraps,SBD,T2,72.1,75,100,110,-117.5,,110,70,77.5,82.5,,82.5,130,145,155,,155,347.5,3,Slovakia
Csaba Méry,18,M,Wraps,SBD,T3,73,75,150,-160,-160,,150,100,-110,-110,,100,205,207.5,-212.5,,207.5,457.5,1,Slovakia
Sylvian Rinaldi,30,M,Wraps,SBD,O,73.7,75,220,-235,-240,,220,135,142.5,-150,,142.5,220,235,245,,245,607.5,1,
Aleks Piciga,37,M,Wraps,SBD,O,74,75,-155,-155,-155,,,-105,105,107.5,,107.5,185,190,192.5,,192.5,,DQ,Slovenia
Michael Khodos,48,M,Wraps,SBD,M2,71.5,75,-155,-155,-155,,,-100,-100,-100,,,160,-180,180,,180,,DQ,Israel
Anatoli Shnaider,62,M,Wraps,SBD,M5,74.1,75,180,-190,192.5,,192.5,107.5,-115,,,107.5,190,217.5,-222.5,,217.5,517.5,1,Israel
Jozef Gabrhel,63,M,Wraps,SBD,M5,71.7,75,130,140,145,,145,90,95,100,,100,165,175,-180,,175,420,2,Slovakia
Ulrich Mielich,79,M,Wraps,SBD,M8,74.1,75,50,60,65,,65,45,50,52.5,,52.5,80,90,102.5,,102.5,220,1,Germany
Csaba Bajczer,17,M,Wraps,SBD,T2,82.5,82.5,230,240,-245,,240,-145,150,-155,,150,265,290,-300,,290,680,1,Hungary
Filip Čáp,17,M,Wraps,SBD,T2,77.7,82.5,145,155,160,,160,100,-105,105,,105,200,207.5,212.5,,212.5,477.5,2,Czechia
Roland Király,18,M,Wraps,SBD,T3,81.7,82.5,195,210,217.5,,217.5,107.5,117.5,-122.5,,117.5,195,210,222.5,,222.5,557.5,1,Hungary
Tamás Deáki,18,M,Wraps,SBD,T3,78.4,82.5,160,172.5,-177.5,,172.5,105,110,112.5,,112.5,180,190,-200,,190,475,2,Hungary
Attila Márk Kiss,22,M,Wraps,SBD,J,82.4,82.5,230,250,260,,260,130,150,-160,,150,230,255,-260,,255,665,1,Hungary
Antoine Caruel,22,M,Wraps,SBD,J,82.5,82.5,-205,210,225,,225,135,140,152.5,,152.5,245,257.5,-267.5,,257.5,635,2,
Szabolcs Csányi,21,M,Wraps,SBD,J,81.5,82.5,230,-235,235,,235,130,137.5,-142.5,,137.5,250,-255,-255,,250,622.5,3,Hungary
Emil Karjalainen,20,M,Wraps,SBD,J,82.3,82.5,-200,-200,-200,,,-110,,,,,,,,,,,DQ,Finland
Péter Bányavölgyi,25,M,Wraps,SBD,O,82,82.5,200,220,-225,,220,125,132.5,-135,,132.5,230,242.5,,,242.5,595,1,Hungary
Gábor Hajós,32,M,Wraps,SBD,O,81.2,82.5,210,220,-225,,220,130,137.5,142.5,,142.5,220,-230,-232.5,,220,582.5,2,Hungary
Ville Tanninen,25,M,Wraps,SBD,O,82,82.5,-170,170,185,,185,125,-135,135,,135,200,215,-227.5,,215,535,3,Finland
András Csiszár,46,M,Wraps,SBD,M2,82.5,82.5,150,160,175,,175,130,140,,,140,150,160,180,,180,495,1,Hungary
František Öszi,64,M,Wraps,SBD,M5,78.3,82.5,110,-125,125,,125,90,-95,95,,95,140,-150,-150,,140,360,1,Slovakia
Máté Juhász,18,M,Wraps,SBD,T3,86.8,90,215,225,235,,235,170,175,-180,,175,245,250,255,,255,665,1,Hungary
Liam Turnbull,19,M,Wraps,SBD,T3,85.8,90,225,-235,240,,240,140,147.5,-152.5,,147.5,225,-235,-235,,225,612.5,2,UK
Árpád Ignéczi,23,M,Wraps,SBD,J,86.3,90,250,260,267.5,,267.5,175,185,191,,191,305,320,329,,329,787.5,1,Hungary
Axel Ravinet,22,M,Wraps,SBD,J,89.6,90,-255,255,-270,,255,165,175,180,,180,250,270,-272.5,,270,705,2,
Szilárd Bai,21,M,Wraps,SBD,J,89.2,90,202.5,212.5,222.5,,222.5,105,112.5,117.5,,117.5,222.5,235,242.5,,242.5,582.5,3,Hungary
Péter Soós,22,M,Wraps,SBD,J,87.2,90,200,215,225,,225,115,125,-130,,125,200,215,225,,225,575,4,Hungary
Robert Kolena,23,M,Wraps,SBD,J,85.2,90,190,200,207.5,,207.5,115,122.5,-130,,122.5,185,200,-207.5,,200,530,5,Czechia
Szilveszter Zsilák,26,M,Wraps,SBD,O,89.9,90,240,250,260,,260,150,160,-165,,160,280,300,,,300,720,1,Hungary
Claude Ngoma,29,M,Wraps,SBD,O,86.2,90,205,215,-230,,215,-140,140,-145,,140,-250,250,-260,,250,605,2,
Dawid Wełna,27,M,Wraps,SBD,O,89.3,90,180,195,-202.5,,195,180,-191.5,-191.5,,180,200,220,,,220,595,3,Poland
Zoltán Boldizsár,25,M,Wraps,SBD,O,86.7,90,170,185,200,,200,100,107.5,-112.5,,107.5,210,225,232.5,,232.5,540,4,Hungary
Mátyás Nagy,26,M,Wraps,SBD,O,87.6,90,160,170,-180,,170,110,115,-120,,115,220,230,235,,235,520,5,Slovakia
Richard Martin #1,43,M,Wraps,SBD,M1,90,90,210,-230,230,,230,135,142.5,150,,150,245,257.5,265,,265,645,1,UK
Róbert Tóth,43,M,Wraps,SBD,M1,88.3,90,160,170,,,170,127.5,-135,-135,,127.5,180,190,,,190,487.5,2,Hungary
Peter Herák,58,M,Wraps,SBD,M4,89.8,90,-230,240,255,,255,125,-132.5,132.5,,132.5,220,235,-245,,235,622.5,1,Slovakia
Elliot Schorp,18,M,Wraps,SBD,T3,98.5,100,215,-230,235,,235,130,140,-147.5,,140,260,275,-282.5,,275,650,1,
Zoltán Debreczeni,22,M,Wraps,SBD,J,98.6,100,225,240,250,,250,155,162.5,167.5,,167.5,265,280,290,,290,707.5,1,Hungary
Gábor Kecső,23,M,Wraps,SBD,J,96.8,100,210,230,-250,,230,140,-165,-165,,140,245,255,265,,265,635,2,Hungary
Roman Sávodsky,21,M,Wraps,SBD,J,90.3,100,-220,-220,-220,,,-130,,,,,,,,,,,DQ,Slovakia
Luke Hayward,34,M,Wraps,SBD,O,98.9,100,-290,-290,290,,290,212.5,217.5,222.5,,222.5,300,-320,320,,320,832.5,1,UK
Dávid Barabás,31,M,Wraps,SBD,O,98.3,100,285,300,307.5,,307.5,187.5,197.5,202.5,,202.5,290,302.5,-312.5,,302.5,812.5,2,Hungary
Róbert Tumpek,26,M,Wraps,SBD,O,96.8,100,305,320,,,320,160,172.5,-175,,172.5,-280,300,-320,,300,792.5,3,Hungary
Péter Czentye,30,M,Wraps,SBD,O,99.4,100,290,310,-320,,310,160,170,175,,175,280,300,-310,,300,785,4,Hungary
Alexandre Saingery,30,M,Wraps,SBD,O,99.5,100,-240,240,-250,,240,140,145,-147.5,,145,240,250,-262.5,,250,635,5,
Nikola Simic,25,M,Wraps,SBD,O,97.8,100,-190,190,-200,,190,112.5,-120,120,,120,205,220,-227.5,,220,530,6,
Péter Óhegyi,44,M,Wraps,SBD,M1,96.3,100,190,205,217.5,,217.5,130,140,-145,,140,190,210,220,,220,577.5,1,Hungary
Tin Mayfield,46,M,Wraps,SBD,M2,95.3,100,200,220,240,,240,150,155,160,,160,260,280,-301,,280,680,1,UK
András István Varga,45,M,Wraps,SBD,M2,98.3,100,205,215,-225,,215,150,-160,160,,160,240,250,-255,,250,625,2,Hungary
Zoltán Németh,52,M,Wraps,SBD,M3,98.3,100,180,225,-230,,225,130,145,147.5,,147.5,185,210,,,210,582.5,1,Hungary
Béla Serfőző,55,M,Wraps,SBD,M4,98.8,100,180,210,,,210,130,,,,130,180,200,,,200,540,1,Hungary
Vladimír Svoboda,66,M,Wraps,SBD,M6,95.5,100,145,155,165,,165,80,95,105,,105,150,160,170,,170,440,1,Czechia
Gergő Grézál,19,M,Wraps,SBD,T3,103,110,-290,290,300,,300,180,190,-195,,190,300,310,-320,,310,800,1,Hungary
Alex Major,19,M,Wraps,SBD,T3,107.8,110,240,-255,260,,260,-140,140,-150,,140,250,280,300,,300,700,2,Hungary
Norbert Gáleg,23,M,Wraps,SBD,J,105,110,260,-280,-280,,260,180,190,195,,195,280,-287.5,-287.5,,280,735,1,Hungary
Ádám Adorján,23,M,Wraps,SBD,J,109.5,110,260,285,,,285,140,150,-155,,150,270,300,-310,,300,735,2,Hungary
Patrik Paulička,21,M,Wraps,SBD,J,102,110,-220,-220,-220,,,-120,,,,,,,,,,,DQ,Slovakia
Dušan Jovanović,26,M,Wraps,SBD,O,108.8,110,315,325,332.5,,332.5,205,215,-220,,215,320,330,-337.5,,330,877.5,1,Serbia
Juraj Kačmárik,34,M,Wraps,SBD,O,107.1,110,-280,290,300,,300,170,-180,180,,180,300,320,-325,,320,800,2,Slovenia
Milán Apaceller,25,M,Wraps,SBD,O,101.6,110,280,292.5,-302.5,,292.5,190,-195,,,190,260,272.5,282.5,,282.5,765,3,Hungary
Aleksandar Pelovski,27,M,Wraps,SBD,O,110,110,270,285,-292.5,,285,185,-190,-190,,185,280,295,-297.5,,295,765,4,Bulgaria
Régis Loubidika,39,M,Wraps,SBD,O,107.2,110,-210,-220,230,,230,130,140,-160,,140,260,280,-300,,280,650,5,
Michael Dickson,28,M,Wraps,SBD,O,104.1,110,-255,265,-272.5,,265,-210,-215,-215,,,-275,-275,-275,,,,DQ,UK
Martin Horák,42,M,Wraps,SBD,M1,103.4,110,225,235,240,,240,160,167.5,170,,170,225,235,240,,240,650,1,Czechia
Lajos Bán,42,M,Wraps,SBD,M1,108.7,110,-210,210,225,,225,140,145,-150,,145,245,-260,,,245,615,2,Hungary
Martin Kolodžej,45,M,Wraps,SBD,M2,108,110,220,235,-250,,235,120,-125,125,,125,220,235,242.5,,242.5,602.5,1,Czechia
Zoltán Borbíró,23,M,Wraps,SBD,J,116.3,125,-280,280,290,,290,170,177.5,180,,180,320,335,-345,,335,805,1,Hungary
Tibor Fülpesi,21,M,Wraps,SBD,J,116.7,125,-245,250,-260,,250,190,197.5,-200,,197.5,290,310,-320,,310,757.5,2,Hungary
Tamás Bocz,36,M,Wraps,SBD,O,115,125,320,340,350,,350,230,240,,,240,310,330,-340,,330,920,1,Hungary
Tibor Lázár,29,M,Wraps,SBD,O,120.7,125,240,260,270,,270,180,200,210,,210,270,290,-300,,290,770,2,Hungary
Lohela Saku,24,M,Wraps,SBD,O,113.6,125,200,-225,-225,,200,130,140,150,,150,210,230,-242.5,,230,580,3,Finland
István Bognár,47,M,Wraps,SBD,M2,114.3,125,240,260,270,,270,160,170,172.5,,172.5,240,260,267.5,,267.5,710,1,Hungary
Saša Cvetković,48,M,Wraps,SBD,M2,118.2,125,240,250,260,,260,140,150,157.5,,157.5,265,275,287.5,,287.5,705,2,Serbia
Gábor Nagy,48,M,Wraps,SBD,M2,111.6,125,180,190,200,,200,130,-145,145,,145,220,230,240,,240,585,3,Hungary
László Németh,51,M,Wraps,SBD,M3,122.1,125,150,165,172.5,,172.5,60,75,85,,85,165,185,-205,,185,442.5,1,Hungary
Zsombor Bárdossy,17,M,Wraps,SBD,T2,132.6,140,200,-210,220,,220,140,145,-150,,145,235,245,252.5,,252.5,617.5,1,Hungary
Gergő Hoffmann,17,M,Wraps,SBD,T2,135.7,140,-260,-260,-260,,,,,,,,,,,,,,DQ,Hungary
Luka Udiljak,21,M,Wraps,SBD,J,137.3,140,317.5,340,355,,355,197.5,210,220,,220,337.5,360,375,,375,950,1,Croatia
Gábor Bencze,40,M,Wraps,SBD,O,125.6,140,320,340,-345,,340,200,-215,215,,215,320,335,-345,,335,890,1,Hungary
István Tóth,30,M,Wraps,SBD,O,133.7,140,265,280,290,,290,170,180,-190,,180,280,-300,,,280,750,2,Hungary
Szilárd Rajkai,39,M,Wraps,SBD,O,130.5,140,-300,300,310,,310,160,-170,-170,,160,260,,,,260,730,3,Hungary
Andrew Cairney,39,M,Wraps,SBD,O,126.9,140,-300,,,,,,,,,,,,,,,,DQ,Scotland
Tamás Szabó,48,M,Wraps,SBD,M2,126.1,140,175,185,195,,195,150,160,172.5,,172.5,190,220,230,,230,597.5,1,Hungary
István Debus,52,M,Wraps,SBD,M3,133.3,140,190,-205,210,,210,170,177.5,-180,,177.5,210,240,252.5,,252.5,640,1,Hungary
Zsolt Kovács,56,M,Wraps,SBD,M4,136.3,140,-140,-140,140,,140,110,120,-130,,120,200,230,260,,260,520,1,Hungary
Erik Méhes,18,M,Wraps,SBD,T3,167.5,140+,175,185,195,,195,90,-95,-95,,90,180,190,200,,200,485,1,Slovakia
Erik Karácsondi,24,M,Wraps,SBD,O,155.2,140+,350,365,-375,,365,250,270,280,,280,355,370,-385,,370,1015,1,Hungary
Dejan Peličić,34,M,Wraps,SBD,O,158.3,140+,300,-325,-325,,300,230,-242.5,-242.5,,230,310,-330,,,310,840,2,Montenegro
László Vass,39,M,Wraps,SBD,O,142.3,140+,220,235,255,,255,150,165,175,,175,230,255,282.5,,282.5,712.5,3,Hungary
Péter Kiss,28,M,Wraps,SBD,O,140.2,140+,245,260,-270,,260,160,170,175,,175,250,270,-275,,270,705,4,Hungary
Attila Kis,39,M,Wraps,SBD,O,152.5,140+,170,185,200,,200,130,145,-150,,145,200,220,240,,240,585,5,Hungary
Rebeka Ficeková,18,F,Multi-ply,SBD,T3,70.6,75,120,140,-170,,140,85,-95,-95,,85,120,,,,120,345,1,Slovakia
Jana Kaas,26,F,Multi-ply,SBD,O,88.7,90,220,240,-250,,240,90,100,110,,110,210,230,240,,240,590,1,Czechia
Bojan Stojanov,32,M,Multi-ply,SBD,O,63.1,67.5,160,172.5,,,172.5,100,105,-110,,105,155,,,,155,432.5,1,Bulgaria
Pavel Malina,59,M,Multi-ply,SBD,M4,62.9,67.5,-190,190,205,,205,110,115,,,115,160,170,-180,,170,490,1,Czechia
Karol Brečka,58,M,Multi-ply,SBD,M4,79.8,82.5,210,225,-235,,225,112.5,122.5,130.5,,130.5,210,225.5,235,,235,590.5,1,Czechia
Edgars Peterlēvics,32,M,Multi-ply,SBD,O,86.1,90,-300,300,-315,,300,250,-265,-265,,250,250,-257.5,-257.5,,250,800,1,Latvia
Aloyzas Slavinskas,25,M,Multi-ply,SBD,O,96.9,100,-230,240,255,,255,180,-200,200,,200,230,250,260,,260,715,1,Lithuania
Eugenius Cibulskis,43,M,Multi-ply,SBD,M1,94,100,235,255,275,,275,135,140,,,140,200,220,240,,240,655,1,Lithuania
Milan Greguš,50,M,Multi-ply,SBD,M3,100,100,270,290,300,,300,-150,150,-170,,150,225,245,-255,,245,695,1,Czechia
Libor Hurdálek,64,M,Multi-ply,SBD,M5,99,100,220,230,-240,,230,160,170,-175,176,170,190,210,-220,,210,610,1,Czechia
Tomasz Bejgrowicz,39,M,Multi-ply,SBD,O,106.1,110,-170,170,180,,180,140,150,155,,155,200,210,222.5,,222.5,557.5,1,Poland
Yurij Ustinov,44,M,Multi-ply,SBD,M1,108.7,110,220,-250,250,,250,160,170,180,,180,250,260,270,,270,700,1,Russia
Oleg Kholodov,57,M,Multi-ply,SBD,M4,103,110,190,220,,,220,150,-170,,,150,190,210,,,210,580,1,Russia
Péter Pintér,34,M,Multi-ply,SBD,O,118.9,125,-330,-330,330,,330,257.5,-265,,,257.5,290,310,-320,,310,897.5,1,Slovakia
Pavel Hurdálek,39,M,Multi-ply,SBD,O,113.4,125,315,325,,,325,210,220,-230,,220,250,270,-285,,270,815,2,Czechia
David Thomas #4,67,M,Multi-ply,SBD,M6,110.4,125,125,,,,125,70,-110,-110,,70,-145,-145,,,,,DQ,UK
Ágnes Papp,41,F,Raw,B,M1,47.3,48,,,,,,40,45,46,-47.5,46,,,,,,46,1,Hungary
Katalin Mezei,39,F,Raw,B,Para,50.2,52,,,,,,65,70,-72.5,-72.5,70,,,,,,70,1,Hungary
Lauryane Beauchais,29,F,Raw,B,O,51.2,52,,,,,,72.5,-75,-75,,72.5,,,,,,72.5,1,
Nevenka Crnogorčević,50,F,Raw,B,O,51.7,52,,,,,,37.5,-42.5,42.5,,42.5,,,,,,42.5,2,Serbia
Szilvia Bartha,20,F,Raw,B,J,53.3,56,,,,,,60,67.5,70,,70,,,,,,70,1,Hungary
Anita Nagy,45,F,Raw,B,M2,55.1,56,,,,,,62.5,-67.5,67.5,-71,67.5,,,,,,67.5,1,Hungary
Ilona Egri,46,F,Raw,B,M2,54.6,56,,,,,,60,-62.5,62.5,,62.5,,,,,,62.5,2,Hungary
Dana Bešková,64,F,Raw,B,M5,54.8,56,,,,,,35,40,-42.5,,40,,,,,,40,1,Czechia
Odett Becz,16,F,Raw,B,T2,58.7,60,,,,,,47.5,50,52.5,55,52.5,,,,,,52.5,1,Hungary
Nelli Belme,17,F,Raw,B,T2,57.1,60,,,,,,30,35,-40,,35,,,,,,35,2,Hungary
Ildikó Sztrunga,41,F,Raw,B,M1,59.6,60,,,,,,45,50,-55,,50,,,,,,50,1,Hungary
Eliška Nehézová,16,F,Raw,B,T2,65.6,67.5,,,,,,50,55,-60,,55,,,,,,55,1,Slovakia
Krisztina Réka Farkas,20,F,Raw,B,J,66.9,67.5,,,,,,77.5,80,85,-87.5,85,,,,,,85,1,Hungary
Gyöngyi Herczeg,26,F,Raw,B,O,66.4,67.5,,,,,,65,70,75,,75,,,,,,75,1,Hungary
Ruba Mónika Hollóné,41,F,Raw,B,M1,66.3,67.5,,,,,,60,62.5,65,,65,,,,,,65,1,Hungary
Kassai Odett Lehotáné,45,F,Raw,B,M2,67.1,67.5,,,,,,60,65,-70,,65,,,,,,65,1,Hungary
Júlia Popa,30,F,Raw,B,O,75,75,,,,,,112.5,120,122.5,,122.5,,,,,,122.5,1,Slovakia
Marianne Hartio,26,F,Raw,B,O,70.3,75,,,,,,90,-95,-95,,90,,,,,,90,2,Finland
Beáta Szalay,39,F,Raw,B,O,72.2,75,,,,,,45,50,55,,55,,,,,,55,3,Hungary
Veronika Danyi,42,F,Raw,B,M1,71.3,75,,,,,,-42.5,42.5,45,,45,,,,,,45,1,Hungary
Barbara Belme,13,F,Raw,B,T1,81.5,82.5,,,,,,-45,45,50.5,,50.5,,,,,,50.5,1,Hungary
Tetiana Brodetska,23,F,Raw,B,J,77.4,82.5,,,,,,90,97.5,-102.5,,97.5,,,,,,97.5,1,Ukraine
Enikő Balázs,32,F,Raw,B,O,82.1,82.5,,,,,,75,80,-82.5,,80,,,,,,80,1,Hungary
Mila Jakovljević,64,F,Raw,B,M5,82.3,82.5,,,,,,50,55,-60,,55,,,,,,55,1,Serbia
Viktória Ricz,22,F,Raw,B,J,85.5,90,,,,,,80,85,87.5,,87.5,,,,,,87.5,1,Hungary
Evelyn Eisensehr,45,F,Raw,B,M2,86.4,90,,,,,,107.5,-112.5,112.5,-119,112.5,,,,,,112.5,1,Hungary
Mariann Tóth,39,F,Raw,B,O,96,110,,,,,,65,67.5,-70,,67.5,,,,,,67.5,1,Hungary
Dezső Péter Orbán,22,M,Raw,B,J,57.7,60,,,,,,100,105,-112.5,,105,,,,,,105,1,Hungary
Ianis Kalaichev,33,M,Raw,B,O,59.7,60,,,,,,145,-155,-155,,145,,,,,,145,1,Russia
Gábor Boncz,28,M,Raw,B,O,56.9,60,,,,,,90,-97.5,-97.5,,90,,,,,,90,2,Hungary
István Tóth,62,M,Raw,B,M5,58.8,60,,,,,,105,110.5,112.5,115,112.5,,,,,,112.5,1,Hungary
Dániel Ökrös,23,M,Raw,B,J,66.7,67.5,,,,,,110,120,-125,,120,,,,,,120,1,Hungary
István Répás,42,M,Raw,B,M1,65.5,67.5,,,,,,132.5,137.5,140,,140,,,,,,140,1,Hungary
István Dorogi,42,M,Raw,B,M1,62.9,67.5,,,,,,120,135,-140,,135,,,,,,135,2,Hungary
Tamás Lóczi,17,M,Raw,B,T2,72.5,75,,,,,,87.5,95,100,,100,,,,,,100,1,Hungary
Csaba Krisztin,16,M,Raw,B,T2,68.3,75,,,,,,42.5,45,47.5,,47.5,,,,,,47.5,2,Hungary
Sebastian Jezildžic,18,M,Raw,B,T3,72.3,75,,,,,,127.5,132.5,-137.5,,132.5,,,,,,132.5,1,Hungary
Bálint Száraz,20,M,Raw,B,J,73.1,75,,,,,,130,137.5,142.5,,142.5,,,,,,142.5,1,Hungary
Benjámin Laki,22,M,Raw,B,J,73.2,75,,,,,,137.5,142.5,-145,,142.5,,,,,,142.5,2,Hungary
Luděk Šmíd,22,M,Raw,B,J,73.9,75,,,,,,-110,115,127.5,,127.5,,,,,,127.5,3,Czechia
Dávid Sasvári,21,M,Raw,B,J,72.1,75,,,,,,115,120,125,,125,,,,,,125,4,Hungary
Balázs Pákozdi,30,M,Raw,B,O,73.3,75,,,,,,110,117.5,122.5,,122.5,,,,,,122.5,1,Hungary
Janoš Ungai,43,M,Raw,B,M1,69,75,,,,,,130,140,142.5,,142.5,,,,,,142.5,1,Hungary
Zsolt Karlik,46,M,Raw,B,M2,74.1,75,,,,,,140,150,155,,155,,,,,,155,1,Hungary
Ernő Varga,53,M,Raw,B,M3,70.9,75,,,,,,120,125,130,,130,,,,,,130,1,Hungary
László Göbölös,55,M,Raw,B,M4,74.1,75,,,,,,100,107.5,-110,,107.5,,,,,,107.5,1,Hungary
István Verebi,68,M,Raw,B,M6,74.2,75,,,,,,102.5,107.5,,,107.5,,,,,,107.5,1,Hungary
Attila Szabó,17,M,Raw,B,Para,81.1,82.5,,,,,,102.5,107.5,110,-112.5,110,,,,,,110,1,Hungary
Patrik Király,17,M,Raw,B,T2,80.9,82.5,,,,,,-97.5,-102.5,-102.5,,,,,,,,,DQ,Hungary
István Gyuricska Jr,18,M,Raw,B,T3,82.4,82.5,,,,,,70,,,,70,,,,,,70,1,Hungary
Ervin Reményi,21,M,Raw,B,J,81.5,82.5,,,,,,165,-170,-170,,165,,,,,,165,1,Hungary
Csaba Pupos,20,M,Raw,B,J,79.2,82.5,,,,,,130,137.5,140,,140,,,,,,140,2,Hungary
Robert Kolena,23,M,Raw,B,J,82.3,82.5,,,,,,115,125,-130,,125,,,,,,125,3,Czechia
Zdeněk Holeček,31,M,Raw,B,O,79.6,82.5,,,,,,180,187.5,-192.5,,187.5,,,,,,187.5,1,Czechia
Tamás Podmaniczki,40,M,Raw,B,M1,79.6,82.5,,,,,,-130,130,-135,,130,,,,,,130,1,Hungary
Lajos Cseh,45,M,Raw,B,M2,81.4,82.5,,,,,,167.5,172.5,,,172.5,,,,,,172.5,1,Hungary
István Bara,50,M,Raw,B,M3,81.7,82.5,,,,,,100,-110,-110,,100,,,,,,100,1,Hungary
Gábor Goda,64,M,Raw,B,M5,77.4,82.5,,,,,,115,120,122.5,,122.5,,,,,,122.5,1,Hungary
Mieczysłąw Maczka,64,M,Raw,B,M5,82.3,82.5,,,,,,100,-110,,,100,,,,,,100,2,Germany
Gábor Teleki,65,M,Raw,B,M6,81.5,82.5,,,,,,90,-100,105,,105,,,,,,105,1,Hungary
József Baranyai,79,M,Raw,B,M8,78.3,82.5,,,,,,85,90,-95,,90,,,,,,90,1,Hungary
Csaba Keszthelyi,85,M,Raw,B,M9,77.8,82.5,,,,,,70,75,-77.5,,75,,,,,,75,1,Hungary
Adrián Galo,16,M,Raw,B,T2,86.2,90,,,,,,105,115,-120,,115,,,,,,115,1,Slovakia
Richárd Sztakó,16,M,Raw,B,T2,85.9,90,,,,,,90,95,-100,,95,,,,,,95,2,Hungary
Valentin Veres,19,M,Raw,B,T3,90,90,,,,,,140,145,-150,,145,,,,,,145,1,Hungary
Benjámín Móricz,23,M,Raw,B,J,87.6,90,,,,,,187.5,192.5,197.5,,197.5,,,,,,197.5,1,Hungary
Norbert Kandula,21,M,Raw,B,J,86.5,90,,,,,,170,-175,-175,,170,,,,,,170,2,Poland
Tomáš Ryšavý,27,M,Raw,B,O,86.8,90,,,,,,190,202.5,210,,210,,,,,,210,1,Slovakia
Attila Gembiczki,32,M,Raw,B,O,86.1,90,,,,,,195,202.5,-210,,202.5,,,,,,202.5,2,Hungary
Zsolt Mák,26,M,Raw,B,O,85.5,90,,,,,,190,195,-197.5,,195,,,,,,195,3,Hungary
István Mester,27,M,Raw,B,O,84.1,90,,,,,,182.5,190,-202.5,,190,,,,,,190,4,Hungary
László Németh,39,M,Raw,B,O,89.8,90,,,,,,145,150,155,,155,,,,,,155,5,Hungary
Rajmond Pozsár,29,M,Raw,B,O,89.9,90,,,,,,-180,-180,,,,,,,,,,DQ,Hungary
István Szeifert,42,M,Raw,B,M1,89.4,90,,,,,,150,170,175,,175,,,,,,175,1,Hungary
Dezső Korom,48,M,Raw,B,M2,84.8,90,,,,,,160,-170,170,,170,,,,,,170,1,Hungary
Alexander Ramirez,49,M,Raw,B,M2,89.5,90,,,,,,-170,-170,170,,170,,,,,,170,2,Ireland
Zsolt Kovács,46,M,Raw,B,M2,85.2,90,,,,,,140,145,,,145,,,,,,145,3,Hungary
István Gyuricska Jr,52,M,Raw,B,M3,85.5,90,,,,,,155,160,170,,170,,,,,,170,1,Hungary
László Jantek,53,M,Raw,B,M3,86.1,90,,,,,,160,167.5,-172.5,,167.5,,,,,,167.5,2,Hungary
László Kozma,62,M,Raw,B,M5,89,90,,,,,,120,125,130,,130,,,,,,130,1,Hungary
Sándor Busák,67,M,Raw,B,M6,87.6,90,,,,,,115,120,122.5,,122.5,,,,,,122.5,1,Hungary
László Jobbágy,71,M,Raw,B,M7,83.3,90,,,,,,110,121,,,121,,,,,,121,1,Hungary
Dr. Ernő Ujvári,70,M,Raw,B,M7,85.6,90,,,,,,100,110,-112.5,,110,,,,,,110,2,Hungary
Imre Élő,76,M,Raw,B,M8,89.7,90,,,,,,100,-105,107.5,,107.5,,,,,,107.5,1,Hungary
Max Glok,17,M,Raw,B,T2,90.4,100,,,,,,107.5,112.5,117.5,,117.5,,,,,,117.5,1,Germany
Tamás Holló Jr,18,M,Raw,B,T3,97.3,100,,,,,,140,142.5,145,,145,,,,,,145,1,Hungary
Dezső Korom Jr,22,M,Raw,B,J,97.2,100,,,,,,195,202.5,-207.5,,202.5,,,,,,202.5,1,Hungary
Július Mertvik,22,M,Raw,B,J,97.5,100,,,,,,190,200,,,200,,,,,,200,2,Slovakia
Jovan Mastilović,23,M,Raw,B,J,98.6,100,,,,,,192.5,-202.5,-205,,192.5,,,,,,192.5,3,Serbia
Tibor Kiss,30,M,Raw,B,O,96.5,100,,,,,,200,205,-210,,205,,,,,,205,1,Hungary
Károly Szuder,32,M,Raw,B,O,98.8,100,,,,,,200,202.5,205,,205,,,,,,205,2,Hungary
Attila Baló,27,M,Raw,B,O,96.1,100,,,,,,202.5,-207.5,-210,,202.5,,,,,,202.5,3,Hungary
Srećko Spasić,37,M,Raw,B,O,99.6,100,,,,,,195,-200,-200,,195,,,,,,195,4,Serbia
László Nagy,39,M,Raw,B,O,99.5,100,,,,,,170,180,-185,,180,,,,,,180,5,Hungary
Tibor Pupos,26,M,Raw,B,O,92.4,100,,,,,,170,-175,-175,,170,,,,,,170,6,Hungary
György Bajzák,36,M,Raw,B,O,95.4,100,,,,,,160,165,-167.5,,165,,,,,,165,7,Hungary
Seppo Junttila,29,M,Raw,B,O,98.5,100,,,,,,145,157.5,-167.5,,157.5,,,,,,157.5,8,Finland
Daniel Jaburek,27,M,Raw,B,O,98,100,,,,,,150,-160,-162.5,,150,,,,,,150,9,Czechia
Andrey Glukhov,41,M,Raw,B,M1,99.3,100,,,,,,195,200,-205,,200,,,,,,200,1,Israel
István Roszik,43,M,Raw,B,M1,98.1,100,,,,,,175,-185,190,,190,,,,,,190,2,Hungary
Zoltán Karsai,45,M,Raw,B,M2,98.7,100,,,,,,180,190,-200,,190,,,,,,190,1,Hungary
Attila Gábor,47,M,Raw,B,M2,98.8,100,,,,,,65,,,,65,,,,,,65,2,Hungary
Zoltán Németh,52,M,Raw,B,M3,98.4,100,,,,,,135,145,150,,150,,,,,,150,3,Hungary
László Bugyi,54,M,Raw,B,M3,99.4,100,,,,,,170,175,-177.5,,175,,,,,,175,1,Hungary
Zsolt Mohácsi,53,M,Raw,B,M3,99.4,100,,,,,,160,-170,-170,,160,,,,,,160,2,Hungary
Robert Brasseur,57,M,Raw,B,M4,99.9,100,,,,,,120,-125,-125,,120,,,,,,120,1,
József Sztanke,64,M,Raw,B,M5,96.1,100,,,,,,145,155,160,,160,,,,,,160,1,Hungary
Ottó Dallos,66,M,Raw,B,M6,96.8,100,,,,,,150,155,,,155,,,,,,155,1,Hungary
Jozef Matej,65,M,Raw,B,M6,98.2,100,,,,,,125,132.5,-135,,132.5,,,,,,132.5,2,Slovakia
Marc Assirelli,70,M,Raw,B,M7,98.9,100,,,,,,120,125,130,,130,,,,,,130,1,
László Kasza,78,M,Raw,B,M8,90.5,100,,,,,,120,130,-132.5,132.5,130,,,,,,130,1,Hungary
Ferenc Mata,17,M,Raw,B,T2,101.2,110,,,,,,150,160.5,-162.5,,160.5,,,,,,160.5,1,Hungary
Mihály Horváth,19,M,Raw,B,T3,109.5,110,,,,,,205,210,-212.5,,210,,,,,,210,1,Hungary
Dénes Veress,21,M,Raw,B,J,107.2,110,,,,,,155,162.5,-167.5,,162.5,,,,,,162.5,1,Hungary
Dávid Mészáros,26,M,Raw,B,O,109.5,110,,,,,,220,227.5,230,,230,,,,,,230,2,Hungary
Ákos Oláh,30,M,Raw,B,O,105.4,110,,,,,,220,227.5,230,,230,,,,,,230,1,Hungary
Alexandr Popa,31,M,Raw,B,O,109.7,110,,,,,,220,-227.5,-230,,220,,,,,,220,3,Czechia
Erik Rusnak,35,M,Raw,B,O,107.9,110,,,,,,190,195,-200,,195,,,,,,195,4,Slovakia
Lukáš Borůvka,30,M,Raw,B,O,104.9,110,,,,,,175,185,-190,,185,,,,,,185,5,Czechia
Gábor Galambos,35,M,Raw,B,Para,106.1,110,,,,,,85,90,95,,95,,,,,,95,1,Hungary
Péter Géresi,42,M,Raw,B,M1,107.7,110,,,,,,180,190,195,,195,,,,,,195,1,Hungary
Evgeniy Shestakov,44,M,Raw,B,M1,109.2,110,,,,,,175,180,-185,,180,,,,,,180,2,Israel
Samuel Dzialoszyski,43,M,Raw,B,M1,105.3,110,,,,,,162.5,-170,-180,,162.5,,,,,,162.5,3,
Tamás Holló,44,M,Raw,B,M1,106.3,110,,,,,,137.5,142.5,-145,,142.5,,,,,,142.5,4,Hungary
György Kleisz,44,M,Raw,B,Para,104.5,110,,,,,,145,150,-155,,150,,,,,,150,1,Hungary
Péter Takács,46,M,Raw,B,M2,108,110,,,,,,190,200,210,,210,,,,,,210,1,Hungary
István Lugasi,46,M,Raw,B,M2,102.7,110,,,,,,160,170,-175,,170,,,,,,170,2,Hungary
Gábor Tóth,48,M,Raw,B,M2,102.8,110,,,,,,155,160,165,,165,,,,,,165,3,Hungary
Vojtech Lázók,53,M,Raw,B,M3,107,110,,,,,,170,180,-185,,180,,,,,,180,1,Slovakia
János Gombos,51,M,Raw,B,M3,108.6,110,,,,,,150,162.5,-172.5,,162.5,,,,,,162.5,2,Hungary
Attila Heizer,53,M,Raw,B,M3,105.5,110,,,,,,155,-160,160,,160,,,,,,160,3,Hungary
Igor Rahtaler,55,M,Raw,B,M4,108,110,,,,,,182.5,185,190,,190,,,,,,190,1,Israel
Imre Nagy,56,M,Raw,B,M4,107.7,110,,,,,,120,130,145,,145,,,,,,145,2,Hungary
István Eszenyi,62,M,Raw,B,M5,108.3,110,,,,,,157.5,162.5,-167.5,,162.5,,,,,,162.5,1,Hungary
Ondrej Döme,63,M,Raw,B,M5,100.7,110,,,,,,125,135,142.5,,142.5,,,,,,142.5,2,Slovakia
Ádám Jakubek,18,M,Raw,B,T3,112.1,125,,,,,,140,150,-152.5,,150,,,,,,150,1,Slovakia
Krisztián Gyulai,22,M,Raw,B,J,111.5,125,,,,,,150,160,162.5,,162.5,,,,,,162.5,1,Hungary
Muhic Ifran,40,M,Raw,B,O,124.5,125,,,,,,235,245,-250,,245,,,,,,245,1,Bosnia and Herzegovina
Adrian Grabski,37,M,Raw,B,O,117.8,125,,,,,,215,225,235,,235,,,,,,235,2,Poland
László Orosz,30,M,Raw,B,O,118,125,,,,,,225,230,232.5,,232.5,,,,,,232.5,3,Hungary
Slavomír Struhár,27,M,Raw,B,O,123.3,125,,,,,,210,220,227.5,,227.5,,,,,,227.5,4,Slovakia
Zdeněk Večeřa,29,M,Raw,B,O,124.6,125,,,,,,210,220,-230,,220,,,,,,220,5,Czechia
Ferenc Bálint,27,M,Raw,B,O,123.1,125,,,,,,195,205,207.5,,207.5,,,,,,207.5,6,Hungary
Ondrej Hudák,44,M,Raw,B,M1,122.3,125,,,,,,170,187.5,195,,195,,,,,,195,1,Slovakia
Richárd Nagy,44,M,Raw,B,M1,115.4,125,,,,,,180,-182.5,-182.5,,180,,,,,,180,2,Hungary
Richárd Veres,40,M,Raw,B,M1,120.4,125,,,,,,140,147.5,150,,150,,,,,,150,3,Hungary
Ondřej Šťastný,40,M,Raw,B,M1,121.6,125,,,,,,120,125,130,,130,,,,,,130,4,Czechia
Tamás Pfeifenróth,46,M,Raw,B,M2,116.3,125,,,,,,190,195,200,,200,,,,,,200,1,Hungary
Tamás Bartalos,46,M,Raw,B,M2,121.2,125,,,,,,185,195,200,,200,,,,,,200,2,Hungary
Ján Hubay,48,M,Raw,B,M2,121,125,,,,,,140,145,150,,150,,,,,,150,3,Slovakia
Zsolt Piller,50,M,Raw,B,M3,120.9,125,,,,,,185,195,-200,,195,,,,,,195,1,Hungary
Sándor Szabó,55,M,Raw,B,M4,111.5,125,,,,,,170,-172.5,177.5,,177.5,,,,,,177.5,1,Hungary
Béla Nagy,58,M,Raw,B,M4,116.9,125,,,,,,155,-170,-175,,155,,,,,,155,2,Hungary
Július Vrbiniak,62,M,Raw,B,M5,113.6,125,,,,,,160,167.5,-172.5,,167.5,,,,,,167.5,1,Slovakia
Gábor Szőke,63,M,Raw,B,M5,110.8,125,,,,,,125,130,135,,135,,,,,,135,2,Hungary
Gyárfás Geréd,66,M,Raw,B,M6,120.7,125,,,,,,120,130,-135,,130,,,,,,130,1,Hungary
Martin Viktor,21,M,Raw,B,J,128.2,140,,,,,,210,220,225,,225,,,,,,225,1,Hungary
Gregory Bellott,30,M,Raw,B,O,130,140,,,,,,220,-240,240,,240,,,,,,240,1,Spain
Csaba Pálóczi,32,M,Raw,B,O,130,140,,,,,,200,210,-220,,210,,,,,,210,2,Hungary
András Sebők,42,M,Raw,B,M1,125.2,140,,,,,,200,210,,,210,,,,,,210,1,Hungary
Attila Pupos,42,M,Raw,B,M1,131,140,,,,,,170,180,-190,,180,,,,,,180,2,Hungary
Erik Susztay,46,M,Raw,B,M2,134.9,140,,,,,,215,-225,225,,225,,,,,,225,1,Slovakia
Ľudovít Fürješ,47,M,Raw,B,M2,129.9,140,,,,,,145,150,155,,155,,,,,,155,2,Slovakia
Tibor Szmolár,46,M,Raw,B,M2,125.3,140,,,,,,135,145,-155,,145,,,,,,145,3,Hungary
László Mészáros,50,M,Raw,B,M3,136.2,140,,,,,,250,270,285,,285,,,,,,285,1,Hungary
László Vass,54,M,Raw,B,M3,136.7,140,,,,,,195,202.5,-205,,202.5,,,,,,202.5,2,Hungary
Ján Orosz,55,M,Raw,B,M4,129,140,,,,,,180,190,-200,,190,,,,,,190,1,Slovakia
Pál Kovács,56,M,Raw,B,M4,132.2,140,,,,,,135,145,-152.5,,145,,,,,,145,2,Hungary
Aleksandr Nikiforov,45,M,Raw,B,O,146,140+,,,,,,-185,185,190,,190,,,,,,190,1,Russia
Barna Csőke,42,M,Raw,B,M1,141.5,140+,,,,,,130,150,-165,,150,,,,,,150,1,Hungary
Zoltán Holczmann,47,M,Raw,B,M2,149.2,140+,,,,,,160,172.5,-180,,172.5,,,,,,172.5,1,Hungary
Lesley Jayne Thomas,53,F,Multi-ply,B,M3,64.5,67.5,,,,,,90,95,-100,,95,,,,,,95,1,UK
Júlia Popa,29,F,Multi-ply,B,O,74,75,,,,,,173,182.5,-192.5,,182.5,,,,,,182.5,1,Slovakia
Benjamin Áder,20,M,Multi-ply,B,J,59.2,60,,,,,,-115,115,-120,,115,,,,,,115,1,Hungary
Janoš Ungai,43,M,Multi-ply,B,M1,66.4,67.5,,,,,,140,150,,,150,,,,,,150,1,Hungary
Burkhard Steffen,68,M,Multi-ply,B,M6,67.4,67.5,,,,,,85,90,92.5,,92.5,,,,,,92.5,1,Germany
Márk Pardi,22,M,Multi-ply,B,J,71.7,75,,,,,,100,110,-120,,110,,,,,,110,1,Hungary
Norbert Deli,37,M,Multi-ply,B,O,74.5,75,,,,,,-155,155,160,,160,,,,,,160,1,Hungary
Zdeněk Holeček,31,M,Multi-ply,B,O,79.5,82.5,,,,,,210,220,-230,,220,,,,,,220,1,Czechia
Zoltán Szabó,34,M,Multi-ply,B,O,82.4,82.5,,,,,,200,212.5,-222.5,,212.5,,,,,,212.5,2,Hungary
Alex Papír,74,M,Multi-ply,B,M7,80.3,82.5,,,,,,140,-145,-147.5,,140,,,,,,140,1,Israel
Filip Stanko,28,M,Multi-ply,B,O,88.9,90,,,,,,260,-267.5,270,-280.5,270,,,,,,270,1,Slovakia
Antic Milija,48,M,Multi-ply,B,M2,89.6,90,,,,,,120,,,,120,,,,,,120,1,Serbia
Mieczysłąw Maczka,64,M,Multi-ply,B,M5,83.5,90,,,,,,100,110,,,110,,,,,,110,1,Germany
László Jobbágy,71,M,Multi-ply,B,M7,83.5,90,,,,,,140,150.5,,,150.5,,,,,,150.5,1,Hungary
László Haraszti Ifj,17,M,Multi-ply,B,T2,98.4,100,,,,,,120,130,150,,150,,,,,,150,1,Hungary
Zsolt Oláh,23,M,Multi-ply,B,J,97.6,100,,,,,,160,175,190,,190,,,,,,190,1,Hungary
Daniel Jarubek,27,M,Multi-ply,B,O,97.4,100,,,,,,-200,-200,-200,,,,,,,,,DQ,Czechia
Dániel Zelei,28,M,Multi-ply,B,O,98.2,100,,,,,,255,260,-265,,260,,,,,,260,1,Hungary
Seppo Junttila,29,M,Multi-ply,B,O,98.3,100,,,,,,-242.5,-250,-265,,,,,,,,,DQ,Finland
József Kovács,45,M,Multi-ply,B,M2,95.9,100,,,,,,150,160,-170,,160,,,,,,160,1,Hungary
Franciszek Szabluk,62,M,Multi-ply,B,M5,100,100,,,,,,220,227.5,-237.5,-250,227.5,,,,,,227.5,1,Poland
Zoltán Zelei,32,M,Multi-ply,B,O,103.8,110,,,,,,-255,260,272.5,,272.5,,,,,,272.5,1,Hungary
Tomasz Bejgrowicz,39,M,Multi-ply,B,O,108,110,,,,,,140,150,-157.5,,150,,,,,,150,2,Poland
Miloš Ćećanović,40,M,Multi-ply,B,M1,108.7,110,,,,,,240,-252.5,252.5,,252.5,,,,,,252.5,1,Montenegro
Yuriy Ustinov,44,M,Multi-ply,B,M1,108.4,110,,,,,,180,190,,,190,,,,,,190,2,Russia
László Haraszti,47,M,Multi-ply,B,M2,109,110,,,,,,230,-240,-250,,230,,,,,,230,1,Hungary
Béla Kling,51,M,Multi-ply,B,M3,109.8,110,,,,,,-230,-235,-235,,,,,,,,,DQ,Hungary
Ruben Tagliaferro,54,M,Multi-ply,B,M3,109.3,110,,,,,,225,-232.5,-232.5,,225,,,,,,225,1,Spain
János Csatári,62,M,Multi-ply,B,M5,106.2,110,,,,,,170,180,-185,,180,,,,,,180,1,Hungary
David Thomas #4,67,M,Multi-ply,B,M6,108.5,110,,,,,,70,,,,70,,,,,,70,1,UK
János Bialik,18,M,Multi-ply,B,T3,116.7,125,,,,,,190,-200,200,-205,200,,,,,,200,1,Hungary
László Gál,20,M,Multi-ply,B,J,111.5,125,,,,,,-130,130,152.5,,152.5,,,,,,152.5,1,Hungary
József Somogyi,26,M,Multi-ply,B,O,122.3,125,,,,,,190,200,210,,210,,,,,,210,1,Hungary
Ondrej Hudák,44,M,Multi-ply,B,M1,121.9,125,,,,,,-300,-300,-310,,,,,,,,,DQ,Slovakia
Dmitry Gorbachev,49,M,Multi-ply,B,M2,117.5,125,,,,,,300,310,320,-325,320,,,,,,320,1,Russia
Saša Mašanović,51,M,Multi-ply,B,M3,124.9,125,,,,,,220,227.5,-232.5,,227.5,,,,,,227.5,1,Montenegro
Richárd Buda,25,M,Multi-ply,B,O,130.7,140,,,,,,340,360,-370,-391,360,,,,,,360,1,Hungary
Csaba Molnár,54,M,Multi-ply,B,M3,128.5,140,,,,,,220,232.5,235,,235,,,,,,235,1,Hungary
Pál Kovács,56,M,Multi-ply,B,M4,131.8,140,,,,,,170,180,190,,190,,,,,,190,1,Hungary
Ágnes Papp,41,F,Raw,D,M1,47.4,48,,,,,,,,,,,100,105,111,-115,111,111,1,Hungary
Edit Kollár,37,F,Raw,D,O,51.7,52,,,,,,,,,,,130,135,-137.5,,135,135,1,Hungary
Nevenka Crnogorčević,50,F,Raw,D,M3,51.2,52,,,,,,,,,,,107.5,115,-120,,115,115,1,Serbia
Dominika Beri,18,F,Raw,D,T3,55.7,56,,,,,,,,,,,110,120,-130,,120,120,1,Hungary
Veronika Francová,42,F,Raw,D,M1,55.1,56,,,,,,,,,,,120,130.5,-132.5,-132.5,130.5,130.5,1,Czechia
Dana Bešková,64,F,Raw,D,M5,55,56,,,,,,,,,,,75,80,85,87.5,85,85,1,Czechia
Fanni Rebeka Varga,21,F,Raw,D,J,60,60,,,,,,,,,,,140,150,-156,-156,150,150,1,Hungary
Dóra Bubernik,28,F,Raw,D,O,59.9,60,,,,,,,,,,,120,125,130,,130,130,1,Hungary
Ildikó Sztrunga,40,F,Raw,D,M1,59.8,60,,,,,,,,,,,-105,115,125,,125,125,1,Hungary
Ivett Tóth,17,F,Raw,D,T2,62.3,67.5,,,,,,,,,,,125,135,142.5,,142.5,142.5,1,Hungary
Eliška Nehézová,16,F,Raw,D,T2,66.4,67.5,,,,,,,,,,,115,125,-135.5,,125,125,2,Slovakia
Kata Piri,17,F,Raw,D,T2,64.3,67.5,,,,,,,,,,,85,105,120,,120,120,3,Hungary
Krisztina Réka Farkas,20,F,Raw,D,J,67.4,67.5,,,,,,,,,,,140,155,162.5,-165,162.5,162.5,1,Hungary
Romola Jákob,23,F,Raw,D,J,65.3,67.5,,,,,,,,,,,125,135,-140,,135,135,2,Hungary
Klaudia Galová,20,F,Raw,D,J,64,67.5,,,,,,,,,,,105,115,-122.5,,115,115,3,Slovakia
Bernadett Fekete,25,F,Raw,D,O,66.5,67.5,,,,,,,,,,,155,165,-175,,165,165,1,Hungary
Gyöngyi Herczeg,26,F,Raw,D,O,67,67.5,,,,,,,,,,,137.5,145,152.5,,152.5,152.5,2,Hungary
Amela Fekovic,27,F,Raw,D,O,62.6,67.5,,,,,,,,,,,-120,135,150,,150,150,3,Montenegro
Brigitta Pákos,26,F,Raw,D,O,63.3,67.5,,,,,,,,,,,112.5,122.5,-132.5,,122.5,122.5,4,Hungary
Beáta Kárpáti,46,F,Raw,D,M2,65.3,67.5,,,,,,,,,,,100,105,110,,110,110,1,Hungary
Dorina Bordás,19,F,Raw,D,T3,75,75,,,,,,,,,,,130,140,-151,-151,140,140,1,Hungary
Anikó Hajdú,32,F,Raw,D,O,70.9,75,,,,,,,,,,,155,165,172.5,,172.5,172.5,1,Hungary
Marianne Hartio,26,F,Raw,D,O,71.2,75,,,,,,,,,,,140,155,-165,,155,155,2,Finland
Katalin Rohrmann,65,F,Raw,D,M6,82.5,82.5,,,,,,,,,,,125,135,140,,140,140,1,Hungary
Éva Manzera,42,F,Raw,D,M1,82.6,90,,,,,,,,,,,145,162.5,172.5,,172.5,172.5,1,Hungary
Anna Szlávik,45,F,Raw,D,M2,83.9,90,,,,,,,,,,,120,130,-137.5,,130,130,1,Hungary
Mila Jakovljević,64,F,Raw,D,M5,83,90,,,,,,,,,,,100,-115,-115,,100,100,1,Serbia
Anita Melinda Danicser,40,F,Raw,D,M1,90.5,110,,,,,,,,,,,150,-162.5,-162.5,-162.5,150,150,1,Hungary
Krisztián Kiss,39,M,Raw,D,O,59.7,60,,,,,,,,,,,110,120,130,,130,130,1,Hungary
Milovan Marčetić,70,M,Raw,D,M7,60,60,,,,,,,,,,,-110,110,120,,120,120,1,Serbia
Dániel Ökrös,23,M,Raw,D,J,67,67.5,,,,,,,,,,,155,175,,,175,175,1,Hungary
Dominik Pintér,18,M,Raw,D,T3,73.1,75,,,,,,,,,,,190,-200,-200,,190,190,1,Hungary
Oliver Kurek,20,M,Raw,D,J,74.8,75,,,,,,,,,,,250,265,272.5,-280,272.5,272.5,1,Slovakia
Jiří Balabán,23,M,Raw,D,J,74,75,,,,,,,,,,,255,265.5,270,-273,270,270,2,Czechia
Gábor Lakatos,30,M,Raw,D,O,72.8,75,,,,,,,,,,,192.5,215,-225,,215,215,1,Hungary
Ivan Stanković,44,M,Raw,D,M1,74.3,75,,,,,,,,,,,215,-230,-230,,215,215,1,Serbia
Sejfo Šehović,59,M,Raw,D,M4,72.2,75,,,,,,,,,,,230,242.5,-250,,242.5,242.5,1,Bosnia and Herzegovina
Dániel Misi,16,M,Raw,D,T2,78.7,82.5,,,,,,,,,,,190,200,210,,210,210,1,Hungary
Jiří Bílek,19,M,Raw,D,T3,81.1,82.5,,,,,,,,,,,260,-270,-285,,260,260,1,Czechia
Adrián Untermayer,19,M,Raw,D,T3,82.1,82.5,,,,,,,,,,,210,225,-235,,225,225,2,Slovakia
Nikola Stanković,18,M,Raw,D,T3,80.2,82.5,,,,,,,,,,,185,195,205,,205,205,3,Serbia
Valter Balogh,34,M,Raw,D,O,80.1,82.5,,,,,,,,,,,245,260,-265,,260,260,1,Hungary
Blagoje Tesić,24,M,Raw,D,O,82.1,82.5,,,,,,,,,,,240,-247.5,-247.5,,240,240,2,Serbia
Péter Katona,35,M,Raw,D,O,81.6,82.5,,,,,,,,,,,200,215,-222.5,,215,215,3,Hungary
István Varga,50,M,Raw,D,M3,77.1,82.5,,,,,,,,,,,200,217.5,-225,,217.5,217.5,1,Hungary
Mieczysłąw Maczka,64,M,Raw,D,M5,82,82.5,,,,,,,,,,,110,132.5,,,132.5,132.5,1,Germany
Sándor Bezsenyi,70,M,Raw,D,M7,81.9,82.5,,,,,,,,,,,160,170,180,,180,180,1,Hungary
Jaroslav Tomanec,76,M,Raw,D,M8,81.9,82.5,,,,,,,,,,,140,145,150,,150,150,1,Czechia
Csaba Bajczer,17,M,Raw,D,T2,88.2,90,,,,,,,,,,,290,300,302.5,,302.5,302.5,1,Hungary
Adrián Galo,16,M,Raw,D,T2,87.9,90,,,,,,,,,,,190,200,205,,205,205,2,Slovakia
Árpád Ignéczi,23,M,Raw,D,J,87.5,90,,,,,,,,,,,300,-330,,,300,300,1,Hungary
Sebastián Slezák,23,M,Raw,D,J,83.3,90,,,,,,,,,,,225,240,-245,,240,240,2,Slovakia
Tomáš Ryšavý,27,M,Raw,D,O,87.5,90,,,,,,,,,,,270,-290,290,,290,290,1,Slovakia
Matt Merrick,31,M,Raw,D,O,88.2,90,,,,,,,,,,,240,270,272.5,,272.5,272.5,2,UK
Bence Petróczki,19,M,Raw,D,T3,98.5,100,,,,,,,,,,,-220,220,235,,235,235,1,Hungary
Gergely Marton,23,M,Raw,D,J,93.8,100,,,,,,,,,,,250,260,270,,270,270,1,Hungary
Márk Varga,21,M,Raw,D,J,96.4,100,,,,,,,,,,,195,202.5,-212.5,,202.5,202.5,2,Hungary
Stefan Danut,27,M,Raw,D,O,92.1,100,,,,,,,,,,,260,280,-287.5,,280,280,1,Romania
Kristóf Kincses,26,M,Raw,D,O,95.4,100,,,,,,,,,,,247.5,262.5,270,,270,270,2,Hungary
Áron Nyúzó,33,M,Raw,D,O,93.7,100,,,,,,,,,,,250,265,-272.5,,265,265,3,Hungary
Seppo Junttila,29,M,Raw,D,O,96.5,100,,,,,,,,,,,240,-252.5,,,240,240,4,Finland
Zdeněk Brauner,46,M,Raw,D,M2,95.1,100,,,,,,,,,,,250,257.5,260,,260,260,1,Czechia
András István Varga,45,M,Raw,D,M2,100,100,,,,,,,,,,,235,252.5,-260,,252.5,252.5,2,Hungary
Csaba Krisztin,45,M,Raw,D,M2,95.4,100,,,,,,,,,,,200,210,-220,,210,210,3,Hungary
Bruno Walter,51,M,Raw,D,M3,96,100,,,,,,,,,,,250,262.5,-270,,262.5,262.5,1,Czechia
Zoltán Németh,52,M,Raw,D,M3,98.6,100,,,,,,,,,,,190,-210,-210,,190,190,2,Hungary
Béla Serfőző,55,M,Raw,D,M4,99,100,,,,,,,,,,,180,210,,,210,210,1,Hungary
Vladimír Svoboda,66,M,Raw,D,M6,95.4,100,,,,,,,,,,,150,165,175,,175,175,1,Czechia
Lazar Belošević,25,M,Raw,D,O,108.4,110,,,,,,,,,,,300,320,,,320,320,1,Serbia
Richárd Németh,25,M,Raw,D,O,108,110,,,,,,,,,,,290,-300,,,290,290,2,Hungary
Neil Gren,38,M,Raw,D,O,107.4,110,,,,,,,,,,,260,275,280,,280,280,3,Ireland
Dmytro Hotlasov,33,M,Raw,D,O,109.9,110,,,,,,,,,,,280,-300,-300,,280,280,4,Ukraine
János Földi,24,M,Raw,D,O,106.3,110,,,,,,,,,,,260,270,-275,,270,270,5,Hungary
Attila Bús,34,M,Raw,D,O,109.9,110,,,,,,,,,,,-270,270,-280,,270,270,6,Hungary
Mihály Erdei,25,M,Raw,D,O,102.5,110,,,,,,,,,,,250,262.5,-275,,262.5,262.5,7,Hungary
Zsolt Antal,43,M,Raw,D,M1,109.9,110,,,,,,,,,,,285,-302.5,-302.5,,285,285,1,Hungary
Tamás Deli,41,M,Raw,D,M1,107.4,110,,,,,,,,,,,250,267.5,280,,280,280,2,Hungary
Lione Fernando Di,47,M,Raw,D,M2,102.3,110,,,,,,,,,,,180,200,220,,220,220,1,Italy
Vojtech Lázók,53,M,Raw,D,M3,109,110,,,,,,,,,,,200,230,250,,250,250,1,Slovakia
Robert Brasseur,57,M,Raw,D,M4,103.4,110,,,,,,,,,,,180,190,-200,,190,190,1,
Imre Nagy,56,M,Raw,D,M4,107,110,,,,,,,,,,,140,160,,,160,160,2,Hungary
Ádám Jakubek,18,M,Raw,D,T3,112.8,125,,,,,,,,,,,235,250,-260.5,,250,250,1,Slovakia
Ádám Kiss,22,M,Raw,D,J,117.8,125,,,,,,,,,,,350,375,385,,385,385,1,Hungary
Coninck Kristof De,33,M,Raw,D,O,124.9,125,,,,,,,,,,,-345,-345,-345,,,,DQ,Belgium
Richárd Nagy,44,M,Raw,D,M1,114.5,125,,,,,,,,,,,230,237.5,-242.5,,237.5,237.5,1,Hungary
Róbert Szabó,46,M,Raw,D,M2,118,125,,,,,,,,,,,250,260,,,260,260,1,Hungary
Attila Hegedűs,47,M,Raw,D,M2,123,125,,,,,,,,,,,180,220,,,220,220,2,Hungary
Péter Szabó,54,M,Raw,D,M3,114.9,125,,,,,,,,,,,210,230,,,230,230,1,Slovakia
László Németh,52,M,Raw,D,M3,120.7,125,,,,,,,,,,,170,195,-200,,195,195,2,Hungary
Zoltán Bence Kapusi,22,M,Raw,D,J,128.7,140,,,,,,,,,,,290,300,-305,,300,300,1,Hungary
Dávid Kecskés,26,M,Raw,D,O,125.8,140,,,,,,,,,,,340,352.5,360,,360,360,1,Hungary
Adam Švehla,38,M,Raw,D,O,138.9,140,,,,,,,,,,,310,-340,,,310,310,2,Czechia
Péter Kiss,28,M,Raw,D,O,139,140,,,,,,,,,,,250,-270,,,250,250,3,Hungary
Zsolt Viktór Szabó,42,M,Raw,D,M1,133.6,140,,,,,,,,,,,270,285,-300,,285,285,1,Hungary
Tibor Karalyos,45,M,Raw,D,M2,138.8,140,,,,,,,,,,,310,-325,,,310,310,1,Hungary
Karol Kornel Repiský,54,M,Raw,D,M3,127,140,,,,,,,,,,,240,-250,,,240,240,1,Slovakia
Šehic Sahludin,41,M,Raw,D,M1,148.4,140+,,,,,,,,,,,310,325,335,,335,335,1,Bosnia and Herzegovina
Lesley Jayne Thomas,53,F,Multi-ply,D,M3,64.5,67.5,,,,,,,,,,,155,-162.5,-162.5,,155,155,1,UK
Srdan Trifunovic,45,M,Multi-ply,D,M2,62.2,67.5,,,,,,,,,,,-160,170,-200,,170,170,1,Serbia
Burkhard Steffen,68,M,Multi-ply,D,M6,67.4,67.5,,,,,,,,,,,120,130,140,,140,140,1,Germany
Konrad Dziuba,19,M,Multi-ply,D,T3,73.7,75,,,,,,,,,,,190,212.5,225,,225,225,1,Poland
Oliver Kurek,20,M,Multi-ply,D,J,74.9,75,,,,,,,,,,,250,265,275,-280,275,275,1,Slovakia
Milan Grozdanović,29,M,Multi-ply,D,O,74.6,75,,,,,,,,,,,265,-275,-275,,265,265,1,Serbia
Mariusz Brito,24,M,Multi-ply,D,O,81.9,82.5,,,,,,,,,,,250,270,285.5,,285.5,285.5,1,Poland
Lothar Schulze,69,M,Multi-ply,D,M6,82,82.5,,,,,,,,,,,145,155,165,,165,165,1,Germany
Jaroslav Tomanec,76,M,Multi-ply,D,M8,81.3,82.5,,,,,,,,,,,-140,,,,,,DQ,Czechia
Emil Karjalainen,20,M,Multi-ply,D,J,85.6,90,,,,,,,,,,,190,220,240,,240,240,1,Finland
Vladislav Minárik,58,M,Multi-ply,D,M4,87.8,90,,,,,,,,,,,170,175,180,,180,180,1,Slovakia
Mieczysłąw Maczka,64,M,Multi-ply,D,M5,83.5,90,,,,,,,,,,,120,142.5,,,142.5,142.5,1,Germany
Ladislau Kiss,71,M,Multi-ply,D,M7,89.7,90,,,,,,,,,,,230,245,-260,,245,245,1,Hungary
László Eck,40,M,Multi-ply,D,M1,94.6,100,,,,,,,,,,,215,230,240,,240,240,1,Hungary
Tibor Manzera,50,M,Multi-ply,D,M3,100.8,110,,,,,,,,,,,175,190,200,,200,200,1,Hungary
Nikolas Tóth,20,M,Multi-ply,D,J,121.3,125,,,,,,,,,,,320,340,350,360,350,350,1,Slovakia
Péter Pintér,34,M,Multi-ply,D,O,120.5,125,,,,,,,,,,,290,-310,-325,,290,290,1,Slovakia
Janne Ihalainen,31,M,Multi-ply,D,O,117.5,125,,,,,,,,,,,280,-300,-310,,280,280,2,Finland
Ernő Eck,47,M,Multi-ply,D,M2,113.7,125,,,,,,,,,,,-270,270,290,310.5,290,290,1,Hungary
Karol Kornel Repiský,54,M,Multi-ply,D,M3,124.8,125,,,,,,,,,,,230,-245,245,,245,245,1,Slovakia
Andrew Cairney,39,M,Multi-ply,D,O,128.4,140,,,,,,,,,,,300,320,-327.5,,320,320,1,Scotland
Katalin Ferkel,47,F,Wraps,S,M2,54.9,56,-95,-105,-110,,,,,,,,,,,,,,DQ,Hungary
Dominika Beri,18,F,Wraps,S,T3,56.5,60,80,90,-95,,90,,,,,,,,,,,90,1,Hungary
Romola Jákob,23,F,Wraps,S,J,65.1,67.5,115,-125,-125,,115,,,,,,,,,,,115,1,Hungary
Lucie Mádlová,26,F,Wraps,S,O,67.5,67.5,170,180,-185,-185,180,,,,,,,,,,,180,1,Czechia
Mónika Bazsó,45,F,Wraps,S,M2,73.8,75,155,-165,-170,,155,,,,,,,,,,,155,1,Hungary
Dorina Bordás,19,F,Wraps,S,T3,75.1,82.5,110,125,-125.5,,125,,,,,,,,,,,125,1,Hungary
Zita Evelley,48,F,Wraps,S,M2,75.6,82.5,80,-90,90,,90,,,,,,,,,,,90,1,Hungary
Katalin Rohrmann,65,F,Wraps,S,M6,82.5,82.5,92.5,97.5,100,,100,,,,,,,,,,,100,1,Hungary
Dominik Filep,17,M,Wraps,S,T2,72.6,75,160,170,-178,-178,170,,,,,,,,,,,170,1,Hungary
Richárd Ferkl,16,M,Wraps,S,T2,72.7,75,130,137.5,145,,145,,,,,,,,,,,145,2,Czechia
Viktor Vacsy,19,M,Wraps,S,T3,75,75,100,120,-140,,120,,,,,,,,,,,120,1,Hungary
Ivan Stanković,44,M,Wraps,S,M1,73.8,75,-215,215,-225,,215,,,,,,,,,,,215,1,Serbia
Robert Kolena,23,M,Wraps,S,J,82.5,82.5,200,-205,,,200,,,,,,,,,,,200,1,Czechia
Jakub Chlumecký,20,M,Wraps,S,J,82.1,82.5,140,-155,155,,155,,,,,,,,,,,155,2,Czechia
Tibor Sipos,53,M,Wraps,S,M3,80.2,82.5,-150,150,,,150,,,,,,,,,,,150,1,Hungary
Mieczysłąw Maczka,64,M,Wraps,S,M5,82.5,82.5,110,125,137.5,,137.5,,,,,,,,,,,137.5,1,Germany
Jan Kasper,20,M,Wraps,S,J,85.4,90,-185,190,210,,210,,,,,,,,,,,210,1,Czechia
Gergely Németh,17,M,Wraps,S,T2,98.3,100,-215,-225,-230,,,,,,,,,,,,,,DQ,Hungary
Juraj Bokroš,20,M,Wraps,S,J,94,100,180,200,-220.5,,200,,,,,,,,,,,200,1,Slovakia
Péter Czentye,30,M,Wraps,S,O,96.7,100,280,300,313,,313,,,,,,,,,,,313,1,Hungary
Tibor Kiss,30,M,Wraps,S,O,96.4,100,270,-280,-280,,270,,,,,,,,,,,270,2,Hungary
Tomáš Obert,26,M,Wraps,S,O,98.6,100,210,230,-235,,230,,,,,,,,,,,230,3,Czechia
Lajos Oláh,44,M,Wraps,S,M1,93.7,100,240,262.5,265,,265,,,,,,,,,,,265,1,Hungary
Zoltán Németh,52,M,Wraps,S,M3,98.3,100,180,200,215,,215,,,,,,,,,,,215,1,Hungary
Béla Serfőző,55,M,Wraps,S,M4,99.1,100,180,200,,,200,,,,,,,,,,,200,1,Hungary
Vladimír Svoboda,66,M,Wraps,S,M6,94.3,100,145,155,165,,165,,,,,,,,,,,165,1,Czechia
Dmytro Hotlasov,33,M,Wraps,S,O,109.8,110,280,300,,,300,,,,,,,,,,,300,1,Ukraine
Tomasz Bejgrowicz,39,M,Wraps,S,O,106.1,110,170,185,190,,190,,,,,,,,,,,190,2,Poland
Zsolt Antal,43,M,Wraps,S,M1,108.5,110,275,-290,290,,290,,,,,,,,,,,290,1,Hungary
Tamás Brudnyák,44,M,Wraps,S,M1,102.2,110,220,230,-235,,230,,,,,,,,,,,230,2,Hungary
Martin Kolodžej,45,M,Wraps,S,M2,107.4,110,220,235,247.5,-265.5,247.5,,,,,,,,,,,247.5,1,Czechia
Tibor Manzera,50,M,Wraps,S,M3,100.1,110,100,115,,,115,,,,,,,,,,,115,1,Hungary
Szilárd Nyúzó,23,M,Wraps,S,J,117.4,125,220,-235,-245,,220,,,,,,,,,,,220,1,Hungary
Attila Bús,34,M,Wraps,S,O,111.4,125,250,260,-270,,260,,,,,,,,,,,260,1,Hungary
Matěj Sturm,16,M,Wraps,S,T2,130,140,150,160,170,180,170,,,,,,,,,,,170,1,Czechia
Tibor Karalyos,45,M,Wraps,S,M2,138,140,260,280,,,280,,,,,,,,,,,280,1,Hungary
Zsolt Kovács,56,M,Wraps,S,M4,136.6,140,130,140,160,,160,,,,,,,,,,,160,1,Hungary
László Vass,39,M,Wraps,S,O,142,140+,200,220,230,,230,,,,,,,,,,,230,1,Hungary
Boyan Stoyanov,32,M,Multi-ply,S,O,63,67.5,150,165,175,,175,,,,,,,,,,,175,1,Bulgaria
Pavel Malina,59,M,Multi-ply,S,M4,64,67.5,190,-205,210,,210,,,,,,,,,,,210,1,Czechia
Robert Kolena,23,M,Multi-ply,S,J,82.5,82.5,195,205,210.5,-215,210.5,,,,,,,,,,,210.5,1,Czechia
Karol Brečka,58,M,Multi-ply,S,M4,78.3,82.5,-205,207.5,-225,,207.5,,,,,,,,,,,207.5,1,Czechia
Mieczysłąw Maczka,64,M,Multi-ply,S,M5,82.5,82.5,110,-130,135,,135,,,,,,,,,,,135,1,Germany
Antic Milija,48,M,Multi-ply,S,M2,89,90,160,180,200,,200,,,,,,,,,,,200,1,Serbia
Juraj Bokroš,20,M,Multi-ply,S,J,93.4,100,160,185,-210,210,185,,,,,,,,,,,185,1,Slovakia
Milan Greguš,51,M,Multi-ply,S,M3,100,100,-280,295,-305,-305,295,,,,,,,,,,,295,1,Czechia
Tibor Manzera,50,M,Multi-ply,S,M3,100.1,110,100,110,120,,120,,,,,,,,,,,120,1,Hungary
Ernő Eck,47,M,Multi-ply,S,M2,113.7,125,-270,-280,-280,,,,,,,,,,,,,,DQ,Hungary
Andrew Cairney,39,M,Multi-ply,S,O,126.7,140,-360,-360,-360,,,,,,,,,,,,,,DQ,Scotland
Gary Boulton,54,M,Multi-ply,S,M3,134.5,140,-320,-340,340,,340,,,,,,,,,,,340,1,UK
