Division,WeightClassKg,Place,Name,Team,BodyweightKg,Best3SquatKg,Best3BenchKg,Best3DeadliftKg,TotalKg,Equipment,Event,Sex,BirthDate
Boys,51.71,1,Jan Ramirez,PSJA North,51.71,151.95,104.33,147.42,403.7,Single-ply,SBD,M,
Boys,51.71,2,Rolando Roldan,McAllen,51.07,149.69,79.38,140.61,369.68,Single-ply,SBD,M,
Boys,51.71,3,Gael Fernandez,Mission,51.26,122.47,77.11,133.81,333.39,Single-ply,SBD,M,
Boys,51.71,4,Alex Guajardo #1,La Joya,49.67,120.2,68.04,131.54,319.78,Single-ply,SBD,M,
Boys,51.71,5,Jacob Solis,PSJA,51.71,106.59,61.23,104.33,272.16,Single-ply,SBD,M,
Boys,55.79,1,Joe Barberena,PSJA North,54.7,181.44,104.33,174.63,460.4,Single-ply,SBD,M,
Boys,55.79,2,Isaias Salinas,McAllen Memorial,53.98,124.74,79.38,158.76,362.87,Single-ply,SBD,M,
Boys,55.79,3,Tomas Olvera,McAllen Rowe,55.29,115.67,74.84,140.61,331.12,Single-ply,SBD,M,
Boys,59.87,1,Michael Tamez,Mission,59.87,222.26,120.2,206.38,548.85,Single-ply,SBD,M,
Boys,59.87,2,Giovanni Salazar,La Joya,58.69,215.46,108.86,215.46,539.77,Single-ply,SBD,M,
Boys,59.87,3,Ramiro Yanez,PSJA,57.38,181.44,102.06,199.58,483.08,Single-ply,SBD,M,
Boys,59.87,4,Alex Esqueda,PSJA,56.93,120.2,77.11,122.47,319.78,Single-ply,SBD,M,
Boys,67.13,1,Mario Marquez,Mission,67.04,260.82,129.27,226.8,616.89,Single-ply,SBD,M,
Boys,67.13,2,Fernando Briones,McAllen Memorial,66.9,231.33,145.15,204.12,580.6,Single-ply,SBD,M,
Boys,67.13,3,Justin Chairez,McAllen Memorial,65.86,222.26,127.01,195.04,544.31,Single-ply,SBD,M,
Boys,67.13,4,Adan Elizondo,La Joya,66.86,195.04,131.54,190.51,517.1,Single-ply,SBD,M,
Boys,67.13,5,Alexander Lomas,McAllen Rowe,66.59,183.7,117.93,204.12,505.76,Single-ply,SBD,M,
Boys,67.13,6,Joe Montoya,La Joya,63.37,201.85,92.99,197.31,492.15,Single-ply,SBD,M,
Boys,67.13,7,Tyler Rosales,PSJA North,66.41,192.78,111.13,188.24,492.15,Single-ply,SBD,M,
Boys,67.13,8,Fidencio Ozuna,La Joya Juarez-Lincoln,65.05,179.17,124.74,149.69,453.59,Single-ply,SBD,M,
Boys,67.13,9,Edgar Duran,PSJA North,61.05,183.7,97.52,170.1,451.32,Single-ply,SBD,M,
Boys,67.13,10,Jael Bernal,PSJA,65.14,165.56,106.59,167.83,439.98,Single-ply,SBD,M,
Boys,67.13,11,Alexandro Gonzalea,McAllen,63.68,163.29,92.99,165.56,421.84,Single-ply,SBD,M,
Boys,67.13,12,Eliu Padilla,La Joya Juarez-Lincoln,63.5,127.01,74.84,149.69,351.53,Single-ply,SBD,M,
Boys,74.84,1,Fabian Rodriguez,McAllen Memorial,74.8,242.67,142.88,222.26,607.81,Single-ply,SBD,M,
Boys,74.84,2,Leonardo Perez,Mission,72.3,199.58,113.4,210.92,523.9,Single-ply,SBD,M,
Boys,74.84,3,Fidencio Ortega,La Joya Juarez-Lincoln,68.63,195.04,138.35,181.44,514.83,Single-ply,SBD,M,
Boys,74.84,4,Ivan Chavez,Mission,68.45,172.37,102.06,183.7,458.13,Single-ply,SBD,M,
Boys,74.84,5,Pablo Jimenez,La Joya,70.03,165.56,92.99,158.76,417.3,Single-ply,SBD,M,
Boys,74.84,DQ,Javier Pichardo,PSJA,69.04,222.26,,,,Single-ply,SBD,M,
Boys,82.1,1,Alter Arenas,PSJA North,80.97,283.5,154.22,260.82,698.53,Single-ply,SBD,M,
Boys,82.1,2,Armando Resendez,McAllen Memorial,82.1,258.55,154.22,213.19,625.96,Single-ply,SBD,M,
Boys,82.1,3,Gonzalo Perez,Mission,82.05,238.14,136.08,215.46,589.67,Single-ply,SBD,M,
Boys,82.1,DQ,Raymond Villegas,La Joya,80.2,219.99,120.2,,,Single-ply,SBD,M,
Boys,89.81,1,Aaron Alvarez,PSJA North,86.18,301.64,161.03,260.82,723.48,Single-ply,SBD,M,
Boys,89.81,2,Roland Briseno,McAllen,86.68,247.21,172.37,226.8,646.37,Single-ply,SBD,M,
Boys,89.81,3,Elian Padilla,La Joya Juarez-Lincoln,84.69,226.8,133.81,222.26,582.87,Single-ply,SBD,M,
Boys,89.81,4,Albertico Garza,La Joya,83.91,226.8,115.67,238.14,580.6,Single-ply,SBD,M,
Boys,89.81,5,Brian Rodriguez,PSJA North,85.96,235.87,136.08,183.7,555.65,Single-ply,SBD,M,
Boys,89.81,6,Jonas Ortiz,McAllen Rowe,88,190.51,122.47,213.19,526.17,Single-ply,SBD,M,
Boys,89.81,7,Isaiah Ailstock,McAllen,88.86,195.04,113.4,170.1,478.54,Single-ply,SBD,M,
Boys,89.81,8,Brandon Mendez,La Joya Juarez-Lincoln,88.22,183.7,111.13,174.63,469.47,Single-ply,SBD,M,
Boys,89.81,9,Jacob Reyes,La Joya,85.46,185.97,88.45,174.63,449.06,Single-ply,SBD,M,
Boys,89.81,DQ,Angel Olvera,La Joya,87.32,192.78,102.06,,,Single-ply,SBD,M,
Boys,99.79,1,Cristian Hernandez #1,Mission,96.57,263.08,133.81,224.53,621.42,Single-ply,SBD,M,
Boys,99.79,2,Vincent Castillo,PSJA North,92.8,244.94,140.61,201.85,587.4,Single-ply,SBD,M,
Boys,99.79,3,Erik Flores,La Joya Juarez-Lincoln,99.61,240.4,136.08,206.38,582.87,Single-ply,SBD,M,
Boys,99.79,4,Zeke Cuadros,Mission,90.26,224.53,117.93,208.65,551.11,Single-ply,SBD,M,
Boys,99.79,5,Ezequiel Corondo,La Joya,97.57,195.04,136.08,219.99,551.11,Single-ply,SBD,M,
Boys,99.79,6,Branden Ochoa,PSJA,94.39,235.87,129.27,181.44,546.58,Single-ply,SBD,M,
Boys,99.79,7,Jose Cavazos,McAllen Rowe,98.52,204.12,106.59,204.12,514.83,Single-ply,SBD,M,
Boys,99.79,8,Justin Gonzalez,McAllen Rowe,96.66,170.1,106.59,190.51,467.2,Single-ply,SBD,M,
Boys,99.79,9,Jorge Garay,PSJA,92.58,183.7,104.33,172.37,460.4,Single-ply,SBD,M,
Boys,99.79,10,Rene Garcia,La Joya Juarez-Lincoln,93.53,172.37,111.13,167.83,451.32,Single-ply,SBD,M,
Boys,99.79,11,Roy Alaniz,La Joya,96.16,163.29,104.33,183.7,451.32,Single-ply,SBD,M,
Boys,99.79,12,Brandon Estrada,La Joya Juarez-Lincoln,94.85,124.74,104.33,142.88,371.95,Single-ply,SBD,M,
Boys,99.79,DQ,Daniel Alejandro,McAllen Rowe,98.52,235.87,138.35,,,Single-ply,SBD,M,
Boys,109.77,1,Ezequiel Garcia,La Joya Juarez-Lincoln,109.32,283.5,165.56,229.06,678.12,Single-ply,SBD,M,
Boys,109.77,2,Robert Garza,PSJA,107.73,272.16,158.76,204.12,635.03,Single-ply,SBD,M,
Boys,109.77,3,Houston Torres,Mission,104.96,249.48,154.22,208.65,612.35,Single-ply,SBD,M,
Boys,109.77,4,Chris Martinez,PSJA North,105.41,235.87,149.69,206.38,591.94,Single-ply,SBD,M,
Boys,109.77,5,Anthony Celis,McAllen Rowe,102.47,226.8,113.4,213.19,553.38,Single-ply,SBD,M,
Boys,109.77,6,Jonathan Johnson,McAllen Memorial,106.46,240.4,122.47,174.63,537.51,Single-ply,SBD,M,
Boys,109.77,7,Juan Cantu,McAllen,102.56,183.7,122.47,215.46,521.63,Single-ply,SBD,M,
Boys,109.77,8,Alex Elizondo,McAllen Memorial,106,204.12,142.88,158.76,505.76,Single-ply,SBD,M,
Boys,109.77,9,Jacob Simmons,PSJA,101.51,183.7,113.4,158.76,455.86,Single-ply,SBD,M,
Boys,109.77,10,Caleb Vega,McAllen,102.92,170.1,106.59,170.1,446.79,Single-ply,SBD,M,
Boys,109.77,DQ,Fabian Ahumada,Mission,101.24,278.96,,,,Single-ply,SBD,M,
Boys,124.74,1,Israel Monsivaiz,La Joya Juarez-Lincoln,124.56,283.5,172.37,249.48,705.34,Single-ply,SBD,M,
Boys,124.74,2,Steven Alvarez,Mission,123.38,290.3,167.83,226.8,684.92,Single-ply,SBD,M,
Boys,124.74,3,Osiel Alonso,La Joya Juarez-Lincoln,113.44,263.08,161.03,224.53,648.64,Single-ply,SBD,M,
Boys,124.74,4,Aaron Noriega,PSJA,118.61,272.16,154.22,213.19,639.57,Single-ply,SBD,M,
Boys,124.74,5,Lucas Gutierrez,PSJA,123.79,288.03,136.08,188.24,612.35,Single-ply,SBD,M,
Boys,124.74,6,Jose Molina #3,McAllen,114.62,235.87,158.76,199.58,594.21,Single-ply,SBD,M,
Boys,124.74,7,Cory Villegas,McAllen,124.74,240.4,124.74,222.26,587.4,Single-ply,SBD,M,
Boys,124.74,8,Alexander Guerra,McAllen Memorial,114.62,238.14,127.01,195.04,560.19,Single-ply,SBD,M,
Boys,124.74,9,Anthony Garcia,PSJA North,111.72,238.14,138.35,174.63,551.11,Single-ply,SBD,M,
Boys,124.74,10,Joey Gonzalez,McAllen Memorial,124.33,233.6,136.08,179.17,548.85,Single-ply,SBD,M,
Boys,124.74,11,Thomas Domian,McAllen Memorial,118.48,199.58,129.27,185.97,514.83,Single-ply,SBD,M,
Boys,124.74,12,Bryan Hernandez,McAllen,122.42,190.51,129.27,192.78,512.56,Single-ply,SBD,M,
Boys,124.74+,1,Joel Iracheta,PSJA North,145.83,362.87,213.19,240.4,816.47,Single-ply,SBD,M,
Boys,124.74+,2,Jimmy Talamantes,McAllen Rowe,138.03,265.35,145.15,201.85,612.35,Single-ply,SBD,M,
Boys,124.74+,3,Jacob Mata,McAllen Rowe,155.45,217.72,176.9,213.19,607.81,Single-ply,SBD,M,
Boys,124.74+,4,Aalok Zimmerman,McAllen Rowe,133.08,242.67,158.76,197.31,598.74,Single-ply,SBD,M,
Boys,124.74+,DQ,Sergio Reyna,McAllen Memorial,131.22,317.51,,,,Single-ply,SBD,M,
