Place,Name,Sex,BirthDate,Country,Equipment,Division,BodyweightKg,WeightClassKg,Squat1Kg,Squat2Kg,Squat3Kg,Best3SquatKg,Bench1Kg,Bench2Kg,Bench3Kg,Best3BenchKg,Deadlift1Kg,Deadlift2Kg,Deadlift3Kg,Best3DeadliftKg,TotalKg,Event
1,Demi Reijmers,F,2001-08-23,Netherlands,Raw,Juniors 20-23,65.3,67.5,115,-130,132.5,132.5,52.5,57.5,-62.5,57.5,117.5,-125,125,125,315,SBD
1,Yaël Vergoosen,F,1995-09-07,Belgium,Raw,Open,59.1,60,120,130,137.5,137.5,65,-72.5,75,75,130,140,-150,140,352.5,SBD
1,Angelique Pestman,F,1990-10-19,Netherlands,Raw,Open,66.3,67.5,70,75,80,80,45,50,-52.5,50,100,110,117.5,117.5,247.5,SBD
DQ,Kailie Strom,F,1998-01-01,USA,Raw,Open,69.8,75,-47.5,-55,-62.5,,32.5,37.5,-42.5,37.5,60,70,80,80,,SBD
1,Mandy Ragetlie,F,1989-02-05,Netherlands,Wraps,Open,65.3,67.5,120,-130,130,130,65,67.5,-70,67.5,165,170,175,175,372.5,SBD
1,Anka Kruyssen,F,1965-09-20,Netherlands,Raw,Masters 55-59,66.2,67.5,,,,,,,,,80,92.5,100,100,100,D
1,Fearghal Connolly,M,2006-04-24,Netherlands,Raw,Juniors 16-17,86.5,90,175,-185,195,195,110,117.5,-122.5,117.5,235,247.5,-252.5,247.5,560,SBD
1,Bjorn van Aken,M,2003-07-20,Netherlands,Raw,Juniors 20-23,75.5,82.5,-195,195,207.5,207.5,105,-110,-110,105,205,222.5,230,230,542.5,SBD
2,Jaimie Schellevis,M,2003-12-27,Netherlands,Raw,Juniors 20-23,80.9,82.5,-160,165,170,170,110,115,120,120,210,220,232.5,232.5,522.5,SBD
1,Ties Arink van der Meer,M,2003-11-08,Netherlands,Wraps,Juniors 20-23,109,110,280,310,330,330,175,185,-192.5,185,275,310,330,330,845,SBD
1,Bram Steenhuis,M,2000-12-25,Netherlands,Raw,Juniors 20-23,122.6,125,-270,290,310,310,185,200,205,205,310,330,-350,330,845,SBD
2,Joachim Mantel,M,2003-11-10,Netherlands,Raw,Juniors 20-23,124.1,125,265,282.5,-292.5,282.5,177.5,192.5,200,200,300,320,-330,320,802.5,SBD
1,Karl Fieldhouse,M,1977-05-31,UK,Raw,Masters 45-49,81.9,82.5,187.5,195,202.5,202.5,90,95,100,100,190,210,220,220,522.5,SBD
1,Tim Geurts,M,1976-09-21,Netherlands,Raw,Masters 45-49,88.9,90,215,225,232.5,232.5,140,147.5,150,150,247.5,262.5,-275,262.5,645,SBD
1,Joshua Santiago Rivera,M,1992-11-18,Puerto Rico,Raw,Open,74.1,75,120,130,-142.5,130,85,100,-112.5,100,120,142.5,155,155,385,SBD
1,Joao Lazarin,M,1989-07-16,USA,Raw,Open,85.6,90,-225,225,240,240,152.5,165,172.5,172.5,250,270,277.5,277.5,690,SBD
2,Steven Kwinten,M,1992-09-24,Netherlands,Raw,Open,89.9,90,180,200,215,215,135,150,165,165,180,200,220,220,600,SBD
3,Justin Warenski,M,1988-02-25,USA,Raw,Open,88.1,90,180,195,205,205,102.5,115,-120,115,180,192.5,207.5,207.5,527.5,SBD
1,David Rogozinski,M,1989-08-01,Netherlands,Raw,Open,91.6,100,180,190,202.5,202.5,110,117.5,122.5,122.5,240,265,,265,590,SBD
2,Joey Knol,M,1992-12-19,Netherlands,Raw,Open,96.6,100,175,185,195,195,130,135,-140,135,200,215,220,220,550,SBD
3,Toby Ormel,M,1994-07-28,Netherlands,Raw,Open,97.8,100,185,195,202.5,202.5,110,117.5,-122.5,117.5,220,230,-240,230,550,SBD
4,Sven van de Sluis,M,1993-08-22,Netherlands,Raw,Open,94.9,100,160,170,177.5,177.5,110,115,-120,115,205,215,225,225,517.5,SBD
1,Dino Bojadjievski,M,1992-08-28,Netherlands,Raw,Open,108.1,110,190,200,215,215,155,165,172.5,172.5,245,265,280,280,667.5,SBD
1,Berend Aaftink,M,1994-04-27,Netherlands,Raw,Open,120.5,125,310,330,340,340,192.5,200,205,205,340,360,-370,360,905,SBD
1,Tyler Castle,M,1996-04-30,USA,Raw,Open,132.6,140,-240,240,-265,240,185,-197.5,-197.5,185,272.5,-292.5,,272.5,697.5,SBD
2,Micah Abraham,M,1984-08-13,USA,Raw,Open,129.4,140,180,-192.5,-210,180,115,122.5,-137.5,122.5,200,215,227.5,227.5,530,SBD
1,Stephan van Bommel,M,1988-03-25,Netherlands,Raw,Open,165.9,140+,-330,360,-375.5,360,185,195,-205,195,280,,,280,835,SBD
1,Alexander Lutterman,M,2003-07-05,Netherlands,Wraps,Juniors 20-23,89.6,90,260,280,-290,280,160,-165,-165,160,300,310,315.5,315.5,755.5,SBD
1,Rhitankar Saha Roy,M,1995-09-01,India,Wraps,Open,81.7,82.5,180,-205,-205,180,125,-135,-135,125,230,-250,,230,535,SBD
1,Maurice Koopmanschap,M,1997-07-29,Netherlands,Wraps,Open,89.6,90,285,303,313,313,180,192.5,200.5,200.5,270,287.5,292.5,292.5,806,SBD
1,Boris Tromp,M,2002-10-03,Netherlands,Single-ply,Juniors 20-23,85.3,90,280,285,291,291,157.5,167.5,-170,167.5,285,302.5,-312.5,302.5,761,SBD
1,Tibor Arnout,M,1990-02-17,Netherlands,Raw,Open,119.5,125,,,,,180,-190,-190,180,305,330,,330,510,BD
1,Louis Meffre,M,2004-03-22,France,Raw,Juniors 20-23,98.3,100,,,,,,,,,275,290,300,300,300,D
