Division,WeightClassKg,Place,Name,Team,BodyweightKg,Best3SquatKg,Best3BenchKg,Best3DeadliftKg,TotalKg,Equipment,Event,Sex,BirthDate
Girls,44.23,1,Ashlyn Crabtree,Junction,43.54,97.52,58.97,106.59,263.08,Unlimited,SBD,F,
Girls,44.23,DQ,Valerie Razo,Bangs,33.57,63.5,,,,Unlimited,SBD,F,
Girls,47.85,1,Jo-Anne Schoppe,Junction,47.17,113.4,65.77,117.93,297.1,Unlimited,SBD,F,
Girls,47.85,2,Addy Diaz DeLeon,Water Valley,47.63,104.33,61.23,111.13,276.69,Unlimited,SBD,F,
Girls,47.85,3,Jasmine Maldonado,Ranger,47.63,58.97,24.95,77.11,161.03,Unlimited,SBD,F,
Girls,51.94,1,Elaine Zhuang,Ballinger,49.44,129.27,54.43,127.01,310.71,Unlimited,SBD,F,
Girls,51.94,2,Gentry Sheppard,Bangs,48.99,68.04,22.68,70.31,161.03,Unlimited,SBD,F,
Girls,56.02,1,Emma Rutledge,Ballinger,53.98,133.81,81.65,136.08,351.53,Unlimited,SBD,F,
Girls,56.02,2,Trinity Walton,Junction,55.79,133.81,65.77,113.4,312.98,Unlimited,SBD,F,
Girls,56.02,3,Cloey Petty,Bangs,55.79,113.4,63.5,117.93,294.84,Unlimited,SBD,F,
Girls,56.02,4,Kendall Smith,Ballinger,53.52,92.99,61.23,117.93,272.16,Unlimited,SBD,F,
Girls,56.02,5,Destinie Hayes,Junction,54.43,104.33,54.43,102.06,260.82,Unlimited,SBD,F,
Girls,56.02,NS,Hyden Nowak,Strawn,,,,,,Unlimited,SBD,F,
Girls,60.1,1,Loveli Sanders,Ballinger,58.51,142.88,61.23,133.81,337.93,Unlimited,SBD,F,
Girls,60.1,2,Marissa Ramirez,Bangs,58.06,142.88,74.84,117.93,335.66,Unlimited,SBD,F,
Girls,60.1,3,Angel Bowerman,Water Valley,57.52,106.59,49.9,95.25,251.74,Unlimited,SBD,F,
Girls,60.1,4,Jillian Rodriguez,Ballinger,58.06,97.52,47.63,102.06,247.21,Unlimited,SBD,F,
Girls,60.1,5,Gabby Zapata,Bangs,58.06,74.84,47.63,108.86,231.33,Unlimited,SBD,F,
Girls,60.1,6,Madison White,Santa Anna,59.87,74.84,47.63,88.45,210.92,Unlimited,SBD,F,
Girls,60.1,7,Karla Espinoza,Junction,56.7,77.11,47.63,83.91,208.65,Unlimited,SBD,F,
Girls,60.1,8,Kalyssa Quintana,Water Valley,59.42,81.65,36.29,90.72,208.65,Unlimited,SBD,F,
Girls,60.1,9,Eva Bradley,Lometa,57.15,79.38,43.09,81.65,204.12,Unlimited,SBD,F,
Girls,60.1,10,Crystal Rodriguez,Junction,56.25,74.84,34.02,92.99,201.85,Unlimited,SBD,F,
Girls,60.1,DQ,Lynlee Peavy,Water Valley,57.15,68.04,,,,Unlimited,SBD,F,
Girls,60.1,DQ,Janaye Coston,Water Valley,57.61,,,,,Unlimited,SBD,F,
Girls,67.36,1,Kirsten Poling,Bangs,60.51,145.15,70.31,136.08,351.53,Unlimited,SBD,F,
Girls,67.36,2,Kasey Solis,Bangs,62.6,142.88,58.97,127.01,328.85,Unlimited,SBD,F,
Girls,67.36,3,Maddison Henry,Lometa,64.86,136.08,61.23,115.67,312.98,Unlimited,SBD,F,
Girls,67.36,4,Kylie Villarreal,Ballinger,66.22,86.18,70.31,133.81,290.3,Unlimited,SBD,F,
Girls,67.36,5,Maddie Dixon,Ballinger,63.05,111.13,45.36,117.93,274.42,Unlimited,SBD,F,
Girls,67.36,6,Mia Pence,Hermleigh,64.86,106.59,54.43,111.13,272.16,Unlimited,SBD,F,
Girls,67.36,7,Justice Baker,Bangs,63.05,108.86,45.36,108.86,263.08,Unlimited,SBD,F,
Girls,67.36,8,Hallie Ellerbe,Hermleigh,64.86,92.99,40.82,108.86,242.67,Unlimited,SBD,F,
Girls,67.36,9,Jalynn Carrillo,Bangs,67.13,88.45,52.16,92.99,233.6,Unlimited,SBD,F,
Girls,67.36,10,Alyssa Whisenhunt,Jonesboro,64.86,74.84,43.09,88.45,206.38,Unlimited,SBD,F,
Girls,67.36,11,McKenna Kepler,Lometa,67.13,79.38,38.56,74.84,192.78,Unlimited,SBD,F,
Girls,75.07,1,Addyson King,Ballinger,74.84,145.15,68.04,127.01,340.19,Unlimited,SBD,F,
Girls,75.07,2,Stormy Stringer,Bangs,71.67,136.08,79.38,104.33,319.78,Unlimited,SBD,F,
Girls,75.07,3,Braelyn Smith,Ranger,69.4,70.31,36.29,99.79,206.38,Unlimited,SBD,F,
Girls,75.07,NS,Claire Seybert,Bangs,,,,,,Unlimited,SBD,F,
Girls,82.33,1,Ili Modesto,Junction,78.47,142.88,63.5,122.47,328.85,Unlimited,SBD,F,
Girls,82.33,2,Madison Cohn,Jonesboro,78.93,92.99,56.7,97.52,247.21,Unlimited,SBD,F,
Girls,82.33,3,Maddie Kelley,Santa Anna,82.1,90.72,43.09,95.25,229.06,Unlimited,SBD,F,
Girls,82.33,4,Ashley Sears,Water Valley,81.19,86.18,38.56,86.18,210.92,Unlimited,SBD,F,
Girls,90.04,1,Allison Leitch,Junction,85.73,124.74,63.5,140.61,328.85,Unlimited,SBD,F,
Girls,90.04,2,Dasia Kirven,Santa Anna,89.66,115.67,68.04,124.74,308.44,Unlimited,SBD,F,
Girls,90.04,3,Caitlin Wilkerson,Junction,83.01,122.47,54.43,108.86,285.76,Unlimited,SBD,F,
Girls,90.04,4,Jasmine Lewis,Bangs,87.54,102.06,47.63,117.93,267.62,Unlimited,SBD,F,
Girls,100.02,1,Jenna McCann,Roscoe Highland,92.53,104.33,63.5,106.59,274.42,Unlimited,SBD,F,
Girls,110,1,Skylar Gandy,Water Valley,104.33,117.93,70.31,108.86,297.1,Unlimited,SBD,F,
Girls,110,2,Reagan Bollinger,Hermleigh,107.5,108.86,47.63,124.74,281.23,Unlimited,SBD,F,
Girls,110,3,Saniya Morton,Valera Panther Creek,105.23,111.13,49.9,113.4,274.42,Unlimited,SBD,F,
Girls,110,4,Mckenzie Harris,Hermleigh,100.24,70.31,38.56,86.18,195.04,Unlimited,SBD,F,
